Année,Parti politique,Nbr donateurs,Proportion donateurs annuelle (%),Proportion argent annuelle (%),Montant total,Montant moyen,Nbr F,Montant F,Montant moyen F,Proportion donateurs F,Proportion montants F,Nbr H,Montant H,Montant moyen H,Proportion donateurs H,Proportion montants H,Nbr I,Montant I,Montant moyen I,Proportion donateurs I,Proportion montant I
2018,Tous,2090.0,1.0,1.0,229494.49,109.81,773.78,81877.3,105.81,0.3702,0.3568,1316.22,147617.19,112.15,0.6298,0.6432,0,0.0,n/a,0.0,0.0
2018,C.A.Q.- É.F.L.,282.01,0.13,0.17,39400.0,139.71,84.98,12953.6,152.43,0.3013,0.3288,197.03,26446.4,134.23,0.6987,0.6712,0,0,n/a,0.0,0.0
2018,P.L.Q./Q.L.P.,426.0,0.2,0.23,53672.55,125.99,159.04,19564.69,123.02,0.3733,0.3645,266.96,34107.86,127.76,0.6267,0.6355,0,0,n/a,0.0,0.0
2018,P.Q.,615.0,0.29,0.25,58360.59,94.9,197.38,17499.95,88.66,0.3209,0.2999,417.62,40860.64,97.84,0.6791,0.7001,0,0,n/a,0.0,0.0
2018,Q.S.,767.0,0.37,0.34,78061.35,101.77,332.38,31859.06,95.85,0.4334,0.4081,434.62,46202.29,106.31,0.5666,0.5919,0,0,n/a,0.0,0.0
