Année,Parti politique,Nbr donateurs,Proportion donateurs annuel (%),Proportion argent annuel (%),Montant total,Montant moyen,Nbr F,Montant F,Montant moyen F,Proportion donateurs F,Proportion montants F,Nbr H,Montant H,Montant moyen H,Proportion donateurs H,Proportion montants H,Nbr I,Montant I,Montant moyen I,Proportion donateurs I,Proportion montant I
2018,Tous,36796.0,1.0,1.0,4033330.9699999997,109.6133,14180.28,1442487.16,101.7249,0.3854,0.3576,22528.72,2581764.81,114.5988,0.6123,0.6401,87,9079.0,104.3563,0.0024,0.0023
2018,A.P.Q.,1.0,0.0,0.0,2.5,2.5,0.0,0.0,n/a,0.0,0.0,1.0,2.5,2.5,1.0,1.0,0,0,n/a,0.0,0.0
2018,B.P.,130.0,0.0035,0.0019,7696.700000000001,59.2054,24.37,1688.77,69.2971,0.1875,0.2194,104.63,5957.93,56.9428,0.8048,0.7741,1,50.0,50.0,0.0077,0.0065
2018,C.A.Q.- É.F.L.,6859.0,0.1864,0.2338,943061.4299999999,137.4926,2156.96,287449.56,133.2661,0.3145,0.3048,4669.04,651569.87,139.5511,0.6807,0.6909,33,4042.0,122.4848,0.0048,0.0043
2018,C.I.N.Q.,2.0,0.0001,0.0001,202.5,101.25,1.0,200.0,200.0,0.5,0.9877,1.0,2.5,2.5,0.5,0.0123,0,0,n/a,0.0,0.0
2018,C.P.Q.,406.0,0.011,0.0067,26987.5,66.4717,123.21,7334.73,59.5303,0.3035,0.2718,281.79,19642.77,69.7071,0.6941,0.7278,1,10.0,10.0,0.0025,0.0004
2018,D.S.D.,1.0,0.0,0.0,2.5,2.5,0.0,0.0,n/a,0.0,0.0,1.0,2.5,2.5,1.0,1.0,0,0,n/a,0.0,0.0
2018,N.P.D.Q.,433.0,0.0118,0.0119,48043.89,110.9559,166.51,17440.25,104.74,0.3845,0.363,263.49,30103.64,114.2496,0.6085,0.6266,3,500.0,166.6667,0.0069,0.0104
2018,P.Cu.Q.,1.0,0.0,0.0,2.5,2.5,0.0,0.0,n/a,0.0,0.0,1.0,2.5,2.5,1.0,1.0,0,0,n/a,0.0,0.0
2018,P.I.,2.0,0.0001,0.0001,205.0,102.5,0.0,0.0,n/a,0.0,0.0,2.0,205.0,102.5,1.0,1.0,0,0,n/a,0.0,0.0
2018,P.L.,38.0,0.001,0.0015,6052.5,159.2763,13.17,2482.5,188.4966,0.3466,0.4102,24.83,3570.0,143.7777,0.6534,0.5898,0,0,n/a,0.0,0.0
2018,P.L.Q./Q.L.P.,7497.0,0.2037,0.2347,946811.82,126.2921,2684.35,326433.37,121.6061,0.3581,0.3448,4781.65,617111.45,129.0583,0.6378,0.6518,31,3267.0,105.3871,0.0041,0.0035
2018,P.M.L.Q.,60.0,0.0016,0.0024,9727.5,162.125,20.36,3048.0,149.7053,0.3393,0.3133,39.64,6679.5,168.504,0.6607,0.6867,0,0,n/a,0.0,0.0
2018,P.N.,1.0,0.0,0.0,2.5,2.5,0.0,0.0,n/a,0.0,0.0,1.0,2.5,2.5,1.0,1.0,0,0,n/a,0.0,0.0
2018,P.Q.,13153.0,0.3575,0.3097,1249090.75,94.9662,4994.01,439111.82,87.9277,0.3797,0.3515,8152.99,809713.93,99.315,0.6199,0.6482,6,265.0,44.1667,0.0005,0.0002
2018,P.U.N.,3.0,0.0001,0.0001,500.0,166.6667,1.0,200.0,200.0,0.3333,0.4,2.0,300.0,150.0,0.6667,0.6,0,0,n/a,0.0,0.0
2018,P.V.Q./G.P.Q.,197.0,0.0054,0.0045,18230.25,92.5393,84.45,8580.73,101.6072,0.4287,0.4707,112.55,9649.52,85.7354,0.5713,0.5293,0,0,n/a,0.0,0.0
2018,P.Éq,2.0,0.0001,0.0,7.5,3.75,0.03,0.15,5.0,0.015,0.02,1.97,7.35,3.731,0.985,0.98,0,0,n/a,0.0,0.0
2018,P51,55.0,0.0015,0.0016,6388.5,116.1545,10.1,1380.2,136.6535,0.1836,0.216,44.9,5008.3,111.5434,0.8164,0.784,0,0,n/a,0.0,0.0
2018,Q.C./C.Q.,3.0,0.0001,0.0001,202.5,67.5,1.03,103.0,100.0,0.3433,0.5086,1.97,99.5,50.5076,0.6567,0.4914,0,0,n/a,0.0,0.0
2018,Q.M.,4.0,0.0001,0.0001,277.5,69.375,0.01,1.0,100.0,0.0025,0.0036,3.99,276.5,69.2982,0.9975,0.9964,0,0,n/a,0.0,0.0
2018,Q.S.,7623.0,0.2072,0.1809,729578.0700000001,95.7075,3830.03,338665.88,88.4238,0.5024,0.4642,3782.97,390097.19,103.1193,0.4963,0.5347,10,815.0,81.5,0.0013,0.0011
2018,V.P.,1.0,0.0,0.0,2.5,2.5,0.0,0.0,n/a,0.0,0.0,1.0,2.5,2.5,1.0,1.0,0,0,n/a,0.0,0.0
2018,É.A.,13.0,0.0004,0.0003,1262.5,97.1154,3.49,241.0,69.0544,0.2685,0.1909,9.51,1021.5,107.4132,0.7315,0.8091,0,0,n/a,0.0,0.0
2018,É.A.P. - P.C.Q.,311.0,0.0085,0.0097,38992.06,125.3764,66.21,8126.22,122.734,0.2129,0.2084,242.79,30735.84,126.5943,0.7807,0.7883,2,130.0,65.0,0.0064,0.0033
