Année,Parti politique,Nbr donateurs,Proportion donateurs annuelle (%),Proportion argent annuelle (%),Montant total,Montant moyen,Nbr F,Montant F,Montant moyen F,Proportion donateurs F,Proportion montants F,Nbr H,Montant H,Montant moyen H,Proportion donateurs H,Proportion montants H,Nbr I,Montant I,Montant moyen I,Proportion donateurs I,Proportion montant I
2018,Tous,6544.0,1.0,1.0,665363.28,101.68,2489.83,239427.31,96.16,0.3805,0.3598,4053.17,425895.97,105.08,0.6194,0.6401,1,40.0,40.0,0.0002,0.0001
2018,C.A.Q.- É.F.L.,572.0,0.09,0.11,76390.0,133.55,177.46,24713.4,139.26,0.3102,0.3235,394.54,51676.6,130.98,0.6898,0.6765,0,0,n/a,0.0,0.0
2018,P.L.Q./Q.L.P.,840.0,0.13,0.16,108262.09,128.88,310.27,39242.63,126.48,0.3694,0.3625,529.73,69019.46,130.29,0.6306,0.6375,0,0,n/a,0.0,0.0
2018,P.Q.,3861.0,0.59,0.52,347363.20999999996,89.97,1411.28,117450.34,83.22,0.3655,0.3381,2449.72,229912.87,93.85,0.6345,0.6619,0,0,n/a,0.0,0.0
2018,Q.S.,1271.0,0.19,0.2,133347.97999999998,104.92,590.81,58020.94,98.21,0.4648,0.4351,679.19,75287.04,110.85,0.5344,0.5646,1,40.0,40.0,0.0008,0.0003
