Année,Parti politique,Nbr donateurs,Proportion donateurs annuelle (%),Proportion argent annuelle (%),Montant total,Montant moyen,Nbr F,Montant F,Montant moyen F,Proportion donateurs F,Proportion montants F,Nbr H,Montant H,Montant moyen H,Proportion donateurs H,Proportion montants H,Nbr I,Montant I,Montant moyen I,Proportion donateurs I,Proportion montant I
2018,Tous,18202.0,1.0,1.0,1911435.78,105.01,7033.68,691145.06,98.26,0.3864,0.3616,11129.32,1217655.72,109.41,0.6114,0.637,39,2635.0,67.56,0.0021,0.0014
2018,B.P.,60.0,0.0,0.0,3960.0,66.0,14.62,1176.33,80.46,0.2437,0.2971,45.38,2783.67,61.34,0.7563,0.7029,0,0,n/a,0.0,0.0
2018,C.A.Q.- É.F.L.,2395.0,0.13,0.17,318721.0,133.08,744.07,96685.93,129.94,0.3107,0.3034,1643.93,221285.07,134.61,0.6864,0.6943,7,750.0,107.14,0.0029,0.0024
2018,C.P.Q.,93.0,0.01,0.0,4170.0,44.84,26.69,1034.65,38.77,0.287,0.2481,66.31,3135.35,47.28,0.713,0.7519,0,0,n/a,0.0,0.0
2018,N.P.D.Q.,155.0,0.01,0.01,17875.0,115.32,54.7,6300.22,115.18,0.3529,0.3525,95.3,11294.78,118.52,0.6148,0.6319,5,280.0,56.0,0.0323,0.0157
2018,P.I.,2.0,0.0,0.0,205.0,102.5,0.0,0.0,n/a,0.0,0.0,2.0,205.0,102.5,1.0,1.0,0,0,n/a,0.0,0.0
2018,P.L.Q./Q.L.P.,3515.0,0.19,0.23,438440.51,124.73,1302.0,154590.57,118.73,0.3704,0.3526,2202.0,282729.94,128.4,0.6265,0.6449,11,1120.0,101.82,0.0031,0.0026
2018,P.M.L.Q.,40.0,0.0,0.0,4605.0,115.12,14.63,1497.0,102.32,0.3658,0.3251,25.37,3108.0,122.51,0.6342,0.6749,0,0,n/a,0.0,0.0
2018,P.Q.,8922.0,0.49,0.42,795850.52,89.2,3429.03,283285.3,82.61,0.3843,0.356,5482.97,512285.22,93.43,0.6145,0.6437,10,280.0,28.0,0.0011,0.0004
2018,P.U.N.,3.0,0.0,0.0,500.0,166.67,1.0,200.0,200.0,0.3333,0.4,2.0,300.0,150.0,0.6667,0.6,0,0,n/a,0.0,0.0
2018,P.V.Q./G.P.Q.,16.0,0.0,0.0,2200.0,137.5,4.05,703.1,173.6,0.2531,0.3196,11.95,1496.9,125.26,0.7469,0.6804,0,0,n/a,0.0,0.0
2018,P51,5.0,0.0,0.0,370.0,74.0,0.5,6.9,13.8,0.1,0.0186,4.5,363.1,80.69,0.9,0.9814,0,0,n/a,0.0,0.0
2018,Q.M.,2.0,0.0,0.0,175.0,87.5,0.01,1.0,100.0,0.005,0.0057,0.99,99.0,100.0,0.495,0.5657,1,75.0,75.0,0.5,0.4286
2018,Q.S.,2890.0,0.16,0.16,308248.75,106.66,1425.27,143150.07,100.44,0.4932,0.4644,1459.73,164968.68,113.01,0.5051,0.5352,5,130.0,26.0,0.0017,0.0004
2018,É.A.,5.0,0.0,0.0,340.0,68.0,0.48,10.4,21.67,0.096,0.0306,4.52,329.6,72.92,0.904,0.9694,0,0,n/a,0.0,0.0
2018,É.A.P. - P.C.Q.,98.99,0.01,0.01,15775.0,159.36,16.63,2503.6,150.55,0.168,0.1587,82.36,13271.4,161.14,0.832,0.8413,0,0,n/a,0.0,0.0
