Année,Parti politique,Nbr donateurs,Proportion donateurs (%),Proportion argent (%),Montant total,Montant moyen,Nbr F,Montant F,Montant moyen F,Proportion donateurs F,Proportion montants F,Nbr H,Montant H,Montant moyen H,Proportion donateurs H,Proportion montants H,Nbr I,Montant I,Montant moyen I,Proportion donateurs I,Proportion montant I
2019,Tous,15858.0,1.0,1.0,1224643.08,77.2256,5957.68,439723.82,73.8079,0.3757,0.3591,9887.32,783889.26,79.2823,0.6235,0.6401,13,1030.0,79.2308,0.0008,0.0008
2019,A.P.Q.,1.0,0.0001,0.0001,100.0,100.0,1.0,100.0,100.0,1.0,1.0,0.0,0.0,n/a,0.0,0.0,0,0,n/a,0.0,0.0
2019,B.P.,32.99,0.0021,0.0011,1382.0,41.8915,6.73,345.02,51.266,0.204,0.2497,26.26,1036.98,39.489,0.796,0.7503,0,0,n/a,0.0,0.0
2019,C.A.Q.- É.F.L.,5065.99,0.3195,0.3834,469547.99,92.6863,1610.39,146581.39,91.0223,0.3179,0.3122,3453.6,322766.6,93.458,0.6817,0.6874,2,200.0,100.0,0.0004,0.0004
2019,C.P.Q.,63.0,0.004,0.0011,1323.0,21.0,12.62,155.75,12.3415,0.2003,0.1177,50.38,1167.25,23.1689,0.7997,0.8823,0,0,n/a,0.0,0.0
2019,N.P.D.Q.,19.0,0.0012,0.0011,1304.0,68.6316,8.02,725.6,90.4738,0.4221,0.5564,10.98,578.4,52.6776,0.5779,0.4436,0,0,n/a,0.0,0.0
2019,P.Cu.Q.,5.0,0.0003,0.0004,450.0,90.0,2.0,150.5,75.25,0.4,0.3344,3.0,299.5,99.8333,0.6,0.6656,0,0,n/a,0.0,0.0
2019,P.L.,550.0,0.0347,0.0268,32800.0,59.6364,190.72,11673.0,61.2049,0.3468,0.3559,358.28,21077.0,58.8283,0.6514,0.6426,1,50.0,50.0,0.0018,0.0015
2019,P.L.Q./Q.L.P.,2407.0,0.1518,0.1674,205041.01,85.1853,953.32,79500.3,83.3931,0.3961,0.3877,1444.68,124800.71,86.3864,0.6002,0.6087,9,740.0,82.2222,0.0037,0.0036
2019,P.M.L.Q.,50.0,0.0032,0.0038,4595.0,91.9,17.72,1561.35,88.1123,0.3544,0.3398,32.28,3033.65,93.9792,0.6456,0.6602,0,0,n/a,0.0,0.0
2019,P.N.,1.0,0.0001,0.0001,100.0,100.0,0.03,3.0,100.0,0.03,0.03,0.97,97.0,100.0,0.97,0.97,0,0,n/a,0.0,0.0
2019,P.Q.,5597.0,0.3529,0.2927,358492.05000000005,64.0508,2194.03,132302.39,60.3011,0.392,0.3691,3402.97,226189.66,66.4683,0.608,0.6309,0,0,n/a,0.0,0.0
2019,P.R.Q.,1.0,0.0001,0.0,25.0,25.0,0.0,0.0,n/a,0.0,0.0,1.0,25.0,25.0,1.0,1.0,0,0,n/a,0.0,0.0
2019,P.V.Q./G.P.Q.,9.0,0.0006,0.0004,530.0,58.8889,3.02,225.6,74.702,0.3356,0.4257,5.98,304.4,50.903,0.6644,0.5743,0,0,n/a,0.0,0.0
2019,P51,14.0,0.0009,0.001,1170.0,83.5714,7.05,553.5,78.5106,0.5036,0.4731,6.95,616.5,88.705,0.4964,0.5269,0,0,n/a,0.0,0.0
2019,Q.S.,1964.0,0.1238,0.1148,140649.71,71.6139,941.31,64936.52,68.9853,0.4793,0.4617,1021.69,75673.19,74.0667,0.5202,0.538,1,40.0,40.0,0.0005,0.0003
2019,É.A.,3.0,0.0002,0.0002,220.0,73.3333,0.48,10.4,21.6667,0.16,0.0473,2.52,209.6,83.1746,0.84,0.9527,0,0,n/a,0.0,0.0
2019,É.A.P. - P.C.Q.,75.0,0.0047,0.0056,6913.31,92.1775,9.23,899.5,97.454,0.1231,0.1301,65.77,6013.81,91.437,0.8769,0.8699,0,0,n/a,0.0,0.0
