Année,Parti politique,Nbr donateurs,Proportion donateurs annuel (%),Proportion argent annuel (%),Montant total,Montant moyen,Nbr F,Montant F,Montant moyen F,Proportion donateurs F,Proportion montants F,Nbr H,Montant H,Montant moyen H,Proportion donateurs H,Proportion montants H,Nbr I,Montant I,Montant moyen I,Proportion donateurs I,Proportion montant I
2019,Tous,3132.0,1.0,1.0,216169.49,69.0196,1163.94,77841.03,66.8772,0.3716,0.3601,1962.06,137848.46,70.257,0.6265,0.6377,6,480.0,80.0,0.0019,0.0022
2019,B.P.,3.0,0.001,0.001,220.0,73.3333,1.0,100.0,100.0,0.3333,0.4545,2.0,120.0,60.0,0.6667,0.5455,0,0,n/a,0.0,0.0
2019,C.A.Q.- É.F.L.,346.01,0.1105,0.1479,31975.0,92.4106,112.21,10501.88,93.5913,0.3243,0.3284,231.8,21323.12,91.9893,0.6699,0.6669,2,150.0,75.0,0.0058,0.0047
2019,C.P.Q.,2.0,0.0006,0.0003,70.0,35.0,0.01,0.5,50.0,0.005,0.0071,1.99,69.5,34.9246,0.995,0.9929,0,0,n/a,0.0,0.0
2019,N.P.D.Q.,15.0,0.0048,0.0048,1027.0,68.4667,6.02,550.6,91.4618,0.4013,0.5361,8.98,476.4,53.0512,0.5987,0.4639,0,0,n/a,0.0,0.0
2019,P.Cu.Q.,4.0,0.0013,0.0016,350.0,87.5,1.0,50.5,50.5,0.25,0.1443,3.0,299.5,99.8333,0.75,0.8557,0,0,n/a,0.0,0.0
2019,P.L.,140.0,0.0447,0.0419,9050.0,64.6429,40.56,2781.0,68.5651,0.2897,0.3073,99.44,6269.0,63.043,0.7103,0.6927,0,0,n/a,0.0,0.0
2019,P.L.Q./Q.L.P.,285.01,0.091,0.1051,22724.83,79.7334,114.17,9148.8,80.1331,0.4006,0.4026,166.84,13246.03,79.3936,0.5854,0.5829,4,330.0,82.5,0.014,0.0145
2019,P.M.L.Q.,23.0,0.0073,0.0096,2065.0,89.7826,10.63,918.2,86.3782,0.4622,0.4446,12.37,1146.8,92.7082,0.5378,0.5554,0,0,n/a,0.0,0.0
2019,P.Q.,1557.0,0.4971,0.4722,102076.88,65.56,544.56,34785.54,63.8783,0.3497,0.3408,1012.44,67291.34,66.4645,0.6503,0.6592,0,0,n/a,0.0,0.0
2019,P.V.Q./G.P.Q.,3.0,0.001,0.0014,300.0,100.0,1.0,100.0,100.0,0.3333,0.3333,2.0,200.0,100.0,0.6667,0.6667,0,0,n/a,0.0,0.0
2019,P51,3.0,0.001,0.0014,300.0,100.0,1.01,101.0,100.0,0.3367,0.3367,1.99,199.0,100.0,0.6633,0.6633,0,0,n/a,0.0,0.0
2019,Q.S.,729.0,0.2328,0.2035,43982.45,60.3326,327.6,18423.61,56.2381,0.4494,0.4189,401.4,25558.84,63.6742,0.5506,0.5811,0,0,n/a,0.0,0.0
2019,É.A.,3.0,0.001,0.001,220.0,73.3333,0.48,10.4,21.6667,0.16,0.0473,2.52,209.6,83.1746,0.84,0.9527,0,0,n/a,0.0,0.0
2019,É.A.P. - P.C.Q.,19.0,0.0061,0.0084,1808.33,95.1753,3.69,369.0,100.0,0.1942,0.2041,15.31,1439.33,94.0124,0.8058,0.7959,0,0,n/a,0.0,0.0
