Année,Parti politique,Nbr donateurs,Proportion donateurs (%),Proportion argent (%),Montant total,Montant moyen,Nbr F,Montant F,Montant moyen F,Proportion donateurs F,Proportion montants F,Nbr H,Montant H,Montant moyen H,Proportion donateurs H,Proportion montants H,Nbr I,Montant I,Montant moyen I,Proportion donateurs I,Proportion montant I
2019,Tous,18809.0,1.0,1.0,1474657.47,78.4017,7026.26,526756.52,74.9697,0.3736,0.3572,11773.74,947175.95,80.4482,0.626,0.6423,9,725.0,80.5556,0.0005,0.0005
2019,A.P.Q.,1.0,0.0001,0.0001,100.0,100.0,1.0,100.0,100.0,1.0,1.0,0.0,0.0,n/a,0.0,0.0,0,0,n/a,0.0,0.0
2019,B.P.,43.99,0.0023,0.0012,1732.0,39.3726,8.74,405.42,46.3867,0.1987,0.2341,35.25,1326.58,37.6335,0.8013,0.7659,0,0,n/a,0.0,0.0
2019,C.A.Q.- É.F.L.,6676.0,0.3549,0.4217,621897.0,93.1541,2153.9,197229.09,91.5684,0.3226,0.3171,4522.1,424667.91,93.9094,0.6774,0.6829,0,0,n/a,0.0,0.0
2019,C.P.Q.,65.0,0.0035,0.001,1453.0,22.3538,12.86,168.05,13.0677,0.1978,0.1157,52.14,1284.95,24.6442,0.8022,0.8843,0,0,n/a,0.0,0.0
2019,N.P.D.Q.,19.0,0.001,0.0009,1304.0,68.6316,8.02,725.6,90.4738,0.4221,0.5564,10.98,578.4,52.6776,0.5779,0.4436,0,0,n/a,0.0,0.0
2019,P.Cu.Q.,5.0,0.0003,0.0003,450.0,90.0,2.0,150.5,75.25,0.4,0.3344,3.0,299.5,99.8333,0.6,0.6656,0,0,n/a,0.0,0.0
2019,P.L.,571.0,0.0304,0.023,33900.0,59.3695,197.01,12037.5,61.101,0.345,0.3551,373.99,21862.5,58.4574,0.655,0.6449,0,0,n/a,0.0,0.0
2019,P.L.Q./Q.L.P.,2839.0,0.1509,0.1634,240959.22999999998,84.8747,1106.85,92054.17,83.1677,0.3899,0.382,1724.15,148200.06,85.9554,0.6073,0.615,8,705.0,88.125,0.0028,0.0029
2019,P.M.L.Q.,52.0,0.0028,0.0033,4820.0,92.6923,17.73,1562.35,88.119,0.341,0.3241,34.27,3257.65,95.0584,0.659,0.6759,0,0,n/a,0.0,0.0
2019,P.N.,1.0,0.0001,0.0001,100.0,100.0,0.03,3.0,100.0,0.03,0.03,0.97,97.0,100.0,0.97,0.97,0,0,n/a,0.0,0.0
2019,P.Q.,6036.0,0.3209,0.2615,385642.31000000006,63.8904,2351.85,140998.17,59.952,0.3896,0.3656,3684.15,244644.14,66.4045,0.6104,0.6344,0,0,n/a,0.0,0.0
2019,P.R.Q.,1.0,0.0001,0.0,25.0,25.0,0.0,0.0,n/a,0.0,0.0,1.0,25.0,25.0,1.0,1.0,0,0,n/a,0.0,0.0
2019,P.V.Q./G.P.Q.,13.0,0.0007,0.0005,715.0,55.0,6.02,385.5,64.0365,0.4631,0.5392,6.98,329.5,47.2063,0.5369,0.4608,0,0,n/a,0.0,0.0
2019,P51,20.0,0.0011,0.0012,1770.0,88.5,8.09,657.5,81.2732,0.4045,0.3715,11.91,1112.5,93.4089,0.5955,0.6285,0,0,n/a,0.0,0.0
2019,Q.S.,2385.0,0.1268,0.1168,172299.96000000002,72.2432,1142.44,79349.97,69.4566,0.479,0.4605,1241.56,92929.99,74.8494,0.5206,0.5394,1,20.0,20.0,0.0004,0.0001
2019,É.A.,3.0,0.0002,0.0002,260.0,86.6667,0.48,29.2,60.8333,0.16,0.1123,2.52,230.8,91.5873,0.84,0.8877,0,0,n/a,0.0,0.0
2019,É.A.P. - P.C.Q.,78.0,0.0041,0.0049,7229.97,92.6919,9.24,900.5,97.4567,0.1185,0.1246,68.76,6329.47,92.0516,0.8815,0.8754,0,0,n/a,0.0,0.0
