Année,Parti politique,Nbr donateurs,Proportion donateurs annuelle (%),Proportion argent annuelle (%),Montant total,Montant moyen,Nbr F,Montant F,Montant moyen F,Proportion donateurs F,Proportion montants F,Nbr H,Montant H,Montant moyen H,Proportion donateurs H,Proportion montants H,Nbr I,Montant I,Montant moyen I,Proportion donateurs I,Proportion montant I
2012,Tous,51136.0,1.0,1.0,10155126.99,198.59,18159.35,3086998.21,169.99,0.36,0.3,32758.65,7028276.05,214.55,0.64,0.69,218,39852.73,182.81,0.0,0.0
2012,A.D.Q.,3.0,0.0,0.0,210.0,70.0,1.0,100.0,100.0,0.33,0.48,2.0,110.0,55.0,0.67,0.52,0,0,n/a,0.0,0.0
2012,B.P.,18.0,0.0,0.0,6649.99,369.44,7.09,2899.4,408.94,0.39,0.44,10.91,3750.59,343.78,0.61,0.56,0,0,n/a,0.0,0.0
2012,C.A.Q.,335.0,0.01,0.01,58756.0,175.39,56.88,9481.95,166.7,0.17,0.16,278.12,49274.05,177.17,0.83,0.84,0,0,n/a,0.0,0.0
2012,C.A.Q.- É.F.L.,8399.0,0.16,0.19,1922750.57,228.93,2413.67,513090.83,212.58,0.29,0.27,5935.33,1398335.74,235.6,0.71,0.73,50,11324.0,226.48,0.01,0.01
2012,C.P.Q.,54.989999999999995,0.0,0.0,3964.0,72.09,19.59,1226.81,62.62,0.36,0.31,35.4,2737.19,77.32,0.64,0.69,0,0,n/a,0.0,0.0
2012,M.E.Q.,1.0,0.0,0.0,500.0,500.0,0.03,15.0,500.0,0.03,0.03,0.97,485.0,500.0,0.97,0.97,0,0,n/a,0.0,0.0
2012,M.P.Q.,15.0,0.0,0.0,4052.0,270.13,5.28,1367.16,258.93,0.35,0.34,9.72,2684.84,276.22,0.65,0.66,0,0,n/a,0.0,0.0
2012,O.N.,2501.0,0.05,0.03,260359.62,104.1,811.87,77457.37,95.41,0.32,0.3,1686.13,182782.25,108.4,0.67,0.7,3,120.0,40.0,0.0,0.0
2012,P.C.M.Q.,10.0,0.0,0.0,3198.0,319.8,1.06,92.79,87.54,0.11,0.03,8.94,3105.21,347.34,0.89,0.97,0,0,n/a,0.0,0.0
2012,P.C.Q.,9.0,0.0,0.0,1276.0,141.78,0.08,11.49,143.62,0.01,0.01,8.92,1264.51,141.76,0.99,0.99,0,0,n/a,0.0,0.0
2012,P.I.,41.0,0.0,0.0,10075.01,245.73,5.88,1284.4,218.44,0.14,0.13,35.12,8790.61,250.3,0.86,0.87,0,0,n/a,0.0,0.0
2012,P.L.Q./Q.L.P.,11232.0,0.22,0.3,3076103.4099999997,273.87,3462.08,790006.48,228.19,0.31,0.26,7679.92,2268938.15,295.44,0.68,0.74,90,17158.78,190.65,0.01,0.01
2012,P.M.L.Q.,45.0,0.0,0.0,16995.0,377.67,15.56,6799.4,436.98,0.35,0.4,28.44,10185.6,358.14,0.63,0.6,1,10.0,10.0,0.02,0.0
2012,P.N.,5.0,0.0,0.0,555.0,111.0,1.0,25.0,25.0,0.2,0.05,4.0,530.0,132.5,0.8,0.95,0,0,n/a,0.0,0.0
2012,P.Q.,21972.0,0.43,0.37,3738324.33,170.14,8290.0,1224080.55,147.66,0.38,0.33,13636.0,2507258.78,183.87,0.62,0.67,46,6985.0,151.85,0.0,0.0
2012,P.U.N.,42.0,0.0,0.0,10281.07,244.79,15.31,3438.7,224.6,0.36,0.33,26.69,6842.37,256.36,0.64,0.67,0,0,n/a,0.0,0.0
2012,P.V.Q./G.P.Q.,116.0,0.0,0.0,20932.8,180.46,32.0,4487.03,140.22,0.28,0.21,84.0,16445.77,195.78,0.72,0.79,0,0,n/a,0.0,0.0
2012,P.Éq,2.0,0.0,0.0,795.84,397.92,0.02,2.0,100.0,0.01,0.0,1.98,793.84,400.93,0.99,1.0,0,0,n/a,0.0,0.0
2012,Q.R.D.,2.0,0.0,0.0,410.0,205.0,0.0,0.0,n/a,0.0,0.0,2.0,410.0,205.0,1.0,1.0,0,0,n/a,0.0,0.0
2012,Q.S.,6081.0,0.12,0.1,970972.72,159.67,2949.43,437270.43,148.26,0.49,0.45,3105.57,529502.34,170.5,0.51,0.55,26,4199.95,161.54,0.0,0.0
2012,U.C.Q./Q.C.U.,69.99,0.0,0.0,8914.76,127.37,17.19,2284.6,132.9,0.25,0.26,51.8,6615.16,127.71,0.74,0.74,1,15.0,15.0,0.01,0.0
2012,É.A.,53.0,0.0,0.0,12974.880000000001,244.81,11.98,2274.03,189.82,0.23,0.18,40.02,10660.85,266.39,0.76,0.82,1,40.0,40.0,0.02,0.0
2012,É.A.P. - P.C.Q.,129.0,0.0,0.0,26076.0,202.14,42.35,9302.8,219.66,0.33,0.36,86.65,16773.2,193.57,0.67,0.64,0,0,n/a,0.0,0.0
