Année,Parti politique,Nbr donateurs,Proportion donateurs annuelle (%),Proportion argent annuelle (%),Montant total,Montant moyen,Nbr F,Montant F,Montant moyen F,Proportion donateurs F,Proportion montants F,Nbr H,Montant H,Montant moyen H,Proportion donateurs H,Proportion montants H,Nbr I,Montant I,Montant moyen I,Proportion donateurs I,Proportion montant I
2014,Tous,38231.0,1.0,1.0,3567172.74,93.31,14116.97,1232866.01,87.33,0.37,0.35,24012.03,2325164.73,96.83,0.63,0.65,102,9142.0,89.63,0.0,0.0
2014,B.P.,82.0,0.0,0.0,5322.01,64.9,22.55,1650.15,73.18,0.28,0.31,58.45,3649.86,62.44,0.71,0.69,1,22.0,22.0,0.01,0.0
2014,C.A.Q.- É.F.L.,2245.0,0.06,0.07,234393.0,104.41,687.44,69803.7,101.54,0.31,0.3,1548.56,163959.3,105.88,0.69,0.7,9,630.0,70.0,0.0,0.0
2014,C.P.Q.,12.0,0.0,0.0,1390.01,115.83,3.51,550.2,156.75,0.29,0.4,7.49,789.81,105.45,0.62,0.57,1,50.0,50.0,0.08,0.04
2014,M.P.Q.,52.0,0.0,0.0,3632.0099999999998,69.85,26.31,1404.6,53.39,0.51,0.39,25.69,2227.41,86.7,0.49,0.61,0,0,n/a,0.0,0.0
2014,N.P.D.Q.,15.0,0.0,0.0,898.3299999999999,59.89,2.3,64.17,27.9,0.15,0.07,12.7,834.16,65.68,0.85,0.93,0,0,n/a,0.0,0.0
2014,O.N.,518.0,0.01,0.01,46098.03,88.99,159.03,13693.27,86.1,0.31,0.3,358.97,32404.76,90.27,0.69,0.7,0,0,n/a,0.0,0.0
2014,P.I.,109.0,0.0,0.0,16054.010000000002,147.28,43.1,6659.81,154.52,0.4,0.41,65.9,9394.2,142.55,0.6,0.59,0,0,n/a,0.0,0.0
2014,P.L.Q./Q.L.P.,12950.0,0.34,0.39,1400758.17,108.17,4216.13,430809.24,102.18,0.33,0.31,8660.87,962868.93,111.17,0.67,0.69,73,7080.0,96.99,0.01,0.01
2014,P.M.L.Q.,65.0,0.0,0.0,7600.01,116.92,22.67,2367.9,104.45,0.35,0.31,42.33,5232.11,123.6,0.65,0.69,0,0,n/a,0.0,0.0
2014,P.N.,6.0,0.0,0.0,223.01000000000002,37.17,2.01,73.4,36.52,0.33,0.33,3.99,149.61,37.5,0.67,0.67,0,0,n/a,0.0,0.0
2014,P.Q.,17834.0,0.47,0.41,1448654.69,81.23,6947.87,531711.88,76.53,0.39,0.37,10875.13,916062.81,84.23,0.61,0.63,11,880.0,80.0,0.0,0.0
2014,P.U.N.,104.0,0.0,0.0,14095.01,135.53,42.34,5789.57,136.74,0.41,0.41,61.66,8305.44,134.7,0.59,0.59,0,0,n/a,0.0,0.0
2014,P.V.Q./G.P.Q.,96.0,0.0,0.0,6050.0,63.02,31.46,1696.25,53.92,0.33,0.28,62.54,4253.75,68.02,0.65,0.7,2,100.0,50.0,0.02,0.02
2014,P.Éq,22.0,0.0,0.0,1479.01,67.23,9.59,772.15,80.52,0.44,0.52,12.41,706.86,56.96,0.56,0.48,0,0,n/a,0.0,0.0
2014,Q.R.D.,7.0,0.0,0.0,390.01,55.72,1.22,72.5,59.43,0.17,0.19,5.78,317.51,54.93,0.83,0.81,0,0,n/a,0.0,0.0
2014,Q.S.,3765.0,0.1,0.1,347640.41000000003,92.33,1816.09,158465.04,87.26,0.48,0.46,1945.91,188995.37,97.12,0.52,0.54,3,180.0,60.0,0.0,0.0
2014,U.C.Q./Q.C.U.,14.0,0.0,0.0,330.01,23.57,1.01,10.15,10.05,0.07,0.03,12.99,319.86,24.62,0.93,0.97,0,0,n/a,0.0,0.0
2014,É.A.,16.0,0.0,0.0,1945.01,121.56,2.5,253.1,101.24,0.16,0.13,12.5,1591.91,127.35,0.78,0.82,1,100.0,100.0,0.06,0.05
2014,É.A.P. - P.C.Q.,319.01,0.01,0.01,30220.0,94.73,79.84,7018.95,87.91,0.25,0.23,238.17,23101.05,96.99,0.75,0.76,1,100.0,100.0,0.0,0.0
