Année,Parti politique,Nbr donateurs,Proportion donateurs annuelle (%),Proportion argent annuelle (%),Montant total,Montant moyen,Nbr F,Montant F,Montant moyen F,Proportion donateurs F,Proportion montants F,Nbr H,Montant H,Montant moyen H,Proportion donateurs H,Proportion montants H,Nbr I,Montant I,Montant moyen I,Proportion donateurs I,Proportion montant I
2000,Tous,7815.0,1.0,1.0,4880654.37,624.52,1851.47,1070698.55,578.3,0.24,0.22,5929.53,3780745.82,637.61,0.76,0.77,34,29210.0,859.12,0.0,0.01
2000,A.D.Q.,104.0,0.01,0.01,46075.740000000005,443.04,21.42,9983.12,466.07,0.21,0.22,81.58,35592.62,436.29,0.78,0.77,1,500.0,500.0,0.01,0.01
2000,P.C.Q.,9.0,0.0,0.0,8112.0,901.33,0.06,48.46,807.67,0.01,0.01,8.94,8063.54,901.96,0.99,0.99,0,0,n/a,0.0,0.0
2000,P.D.S.,24.0,0.0,0.0,8850.0,368.75,10.63,3540.4,333.06,0.44,0.4,13.37,5309.6,397.13,0.56,0.6,0,0,n/a,0.0,0.0
2000,P.I.Q.,1.0,0.0,0.0,1400.0,1400.0,0.0,0.0,n/a,0.0,0.0,1.0,1400.0,1400.0,1.0,1.0,0,0,n/a,0.0,0.0
2000,P.L.Q./Q.L.P.,3892.0,0.5,0.51,2505847.63,643.85,882.64,522295.57,591.74,0.23,0.21,2983.36,1962542.06,657.83,0.77,0.78,26,21010.0,808.08,0.01,0.01
2000,P.Q.,3765.0,0.48,0.47,2298414.0,610.47,931.9,531216.05,570.04,0.25,0.23,2826.1,1759497.95,622.59,0.75,0.77,7,7700.0,1100.0,0.0,0.0
2000,P.É./E.P.,20.0,0.0,0.0,11955.0,597.75,4.82,3614.95,749.99,0.24,0.3,15.18,8340.05,549.41,0.76,0.7,0,0,n/a,0.0,0.0
2001,Tous,10214.0,1.0,1.0,6980733.26,683.45,2486.47,1651796.02,664.31,0.24,0.24,7684.53,5299072.74,689.58,0.75,0.76,43,29864.5,694.52,0.0,0.0
2001,A.D.Q.,197.0,0.02,0.02,115118.61000000002,584.36,52.64,33324.65,633.07,0.27,0.29,144.36,81793.96,566.6,0.73,0.71,0,0,n/a,0.0,0.0
2001,B.P.,5.0,0.0,0.0,2344.94,468.99,3.0,1244.94,414.98,0.6,0.53,2.0,1100.0,550.0,0.4,0.47,0,0,n/a,0.0,0.0
2001,P.C.Q.,10.0,0.0,0.0,8529.0,852.9,1.05,545.23,519.27,0.11,0.06,8.95,7983.77,892.04,0.89,0.94,0,0,n/a,0.0,0.0
2001,P.D.S.,25.0,0.0,0.0,8785.0,351.4,10.63,3465.8,326.04,0.43,0.39,14.37,5319.2,370.16,0.57,0.61,0,0,n/a,0.0,0.0
2001,P.I.Q.,1.0,0.0,0.0,900.0,900.0,0.0,0.0,n/a,0.0,0.0,1.0,900.0,900.0,1.0,1.0,0,0,n/a,0.0,0.0
2001,P.L.Q./Q.L.P.,5516.99,0.54,0.6,4162006.7800000003,754.4,1295.01,979693.33,756.51,0.23,0.24,4189.98,3158923.95,753.92,0.76,0.76,32,23389.5,730.92,0.01,0.01
2001,P.Q.,4426.0,0.43,0.38,2667641.81,602.72,1118.26,629628.98,563.04,0.25,0.24,3297.74,2031752.83,616.1,0.75,0.76,10,6260.0,626.0,0.0,0.0
2001,P.V.Q./G.P.Q.,4.0,0.0,0.0,1350.0,337.5,2.01,738.4,367.36,0.5,0.55,1.99,611.6,307.34,0.5,0.45,0,0,n/a,0.0,0.0
2001,P.É./E.P.,29.0,0.0,0.0,14057.12,484.73,3.87,3154.67,815.16,0.13,0.22,24.13,10687.45,442.91,0.83,0.76,1,215.0,215.0,0.03,0.02
2002,Tous,12498.0,1.0,1.0,8819801.0,705.7,3061.15,2136206.07,697.84,0.24,0.24,9388.85,6649914.93,708.28,0.75,0.75,48,33680.0,701.67,0.0,0.0
2002,A.D.Q.,891.0,0.07,0.14,1217229.95,1366.14,216.2,317897.22,1470.38,0.24,0.26,671.8,894832.73,1331.99,0.75,0.74,3,4500.0,1500.0,0.0,0.0
2002,B.P.,11.0,0.0,0.0,4300.0,390.91,5.02,2008.0,400.0,0.46,0.47,5.98,2292.0,383.28,0.54,0.53,0,0,n/a,0.0,0.0
2002,P.C.Q.,8.0,0.0,0.0,8268.0,1033.5,0.05,67.18,1343.6,0.01,0.01,7.95,8200.82,1031.55,0.99,0.99,0,0,n/a,0.0,0.0
2002,P.D.S.,27.0,0.0,0.0,9245.0,342.41,7.32,2226.25,304.13,0.27,0.24,19.68,7018.75,356.64,0.73,0.76,0,0,n/a,0.0,0.0
2002,P.I.Q.,1.0,0.0,0.0,1000.0,1000.0,0.0,0.0,n/a,0.0,0.0,1.0,1000.0,1000.0,1.0,1.0,0,0,n/a,0.0,0.0
2002,P.L.Q./Q.L.P.,6887.0,0.55,0.56,4925877.99,715.24,1632.99,1172142.57,717.79,0.24,0.24,5214.01,3726790.42,714.76,0.76,0.76,40,26945.0,673.62,0.01,0.01
2002,P.Q.,4603.0,0.37,0.3,2624905.8200000003,570.26,1179.31,631820.45,535.75,0.26,0.24,3418.69,1990850.37,582.34,0.74,0.76,5,2235.0,447.0,0.0,0.0
2002,P.U.N.,22.0,0.0,0.0,9390.0,426.82,6.04,3278.55,542.81,0.27,0.35,15.96,6111.45,382.92,0.73,0.65,0,0,n/a,0.0,0.0
2002,P.V.Q./G.P.Q.,1.0,0.0,0.0,500.0,500.0,0.0,0.0,n/a,0.0,0.0,1.0,500.0,500.0,1.0,1.0,0,0,n/a,0.0,0.0
2002,P.É./E.P.,25.0,0.0,0.0,11700.0,468.0,5.88,3963.9,674.13,0.24,0.34,19.12,7736.1,404.61,0.76,0.66,0,0,n/a,0.0,0.0
2002,R.A.P.,2.0,0.0,0.0,639.24,319.62,0.01,4.0,400.0,0.01,0.01,1.99,635.24,319.22,0.99,0.99,0,0,n/a,0.0,0.0
2002,U.F.P.,20.0,0.0,0.0,6745.0,337.25,8.32,2797.95,336.29,0.42,0.41,11.68,3947.05,337.93,0.58,0.59,0,0,n/a,0.0,0.0
2003,Tous,18940.0,1.0,1.0,13881794.39,732.94,4973.19,3602404.01,724.36,0.26,0.26,13890.81,10219522.38,735.7,0.73,0.74,76,59868.0,787.74,0.0,0.0
2003,A.D.Q.,3116.99,0.16,0.19,2624500.94,842.0,863.05,775030.97,898.01,0.28,0.3,2235.94,1828836.97,817.93,0.72,0.7,18,20633.0,1146.28,0.01,0.01
2003,B.P.,13.0,0.0,0.0,8100.0,623.08,4.02,1610.0,400.5,0.31,0.2,8.98,6490.0,722.72,0.69,0.8,0,0,n/a,0.0,0.0
2003,P.L.Q./Q.L.P.,8914.0,0.47,0.52,7227459.0600000005,810.8,2216.21,1798184.28,811.38,0.25,0.25,6652.79,5400179.78,811.72,0.75,0.75,45,29095.0,646.56,0.01,0.0
2003,P.M.L.Q.,30.0,0.0,0.0,12580.0,419.33,10.64,4468.8,420.0,0.35,0.36,19.36,8111.2,418.97,0.65,0.64,0,0,n/a,0.0,0.0
2003,P.Q.,6698.990000000001,0.35,0.28,3915770.4200000004,584.53,1829.72,998783.43,545.87,0.27,0.26,4858.27,2907541.99,598.47,0.73,0.74,11,9445.0,858.64,0.0,0.0
2003,P.U.N.,36.010000000000005,0.0,0.0,29085.989999999998,807.72,6.73,4742.82,704.73,0.19,0.16,28.28,24043.17,850.18,0.79,0.83,1,300.0,300.0,0.03,0.01
2003,P.V.Q./G.P.Q.,6.0,0.0,0.0,4470.0,745.0,1.01,404.0,400.0,0.17,0.09,4.99,4066.0,814.83,0.83,0.91,0,0,n/a,0.0,0.0
2003,P.É./E.P.,26.0,0.0,0.0,15384.0,591.69,9.64,7169.54,743.73,0.37,0.47,16.36,8214.46,502.11,0.63,0.53,0,0,n/a,0.0,0.0
2003,U.F.P.,99.0,0.01,0.0,44443.97,448.93,32.16,12010.16,373.45,0.32,0.27,65.84,32038.81,486.62,0.67,0.72,1,395.0,395.0,0.01,0.01
2004,Tous,13346.0,1.0,1.0,10063554.14,754.05,3478.86,2536564.58,729.14,0.26,0.25,9801.14,7471233.56,762.28,0.73,0.74,66,55756.0,844.79,0.0,0.01
2004,A.D.Q.,551.0,0.04,0.04,373702.42,678.23,157.59,117436.39,745.2,0.29,0.31,391.41,252866.03,646.04,0.71,0.68,2,3400.0,1700.0,0.0,0.01
2004,B.P.,12.0,0.0,0.0,5700.0,475.0,3.01,1204.0,400.0,0.25,0.21,8.99,4496.0,500.11,0.75,0.79,0,0,n/a,0.0,0.0
2004,P.L.Q./Q.L.P.,9100.0,0.68,0.78,7863842.67,864.16,2308.11,1933445.55,837.67,0.25,0.25,6733.89,5880031.12,873.2,0.74,0.75,58,50366.0,868.38,0.01,0.01
2004,P.M.L.Q.,22.0,0.0,0.0,9029.5,410.43,7.63,3014.1,395.03,0.35,0.33,14.37,6015.4,418.61,0.65,0.67,0,0,n/a,0.0,0.0
2004,P.Q.,3518.0,0.26,0.17,1738919.01,494.29,955.46,459359.53,480.77,0.27,0.26,2557.54,1277969.48,499.69,0.73,0.73,5,1590.0,318.0,0.0,0.0
2004,P.U.N.,26.0,0.0,0.0,19716.0,758.31,6.82,6806.21,997.98,0.26,0.35,19.18,12909.79,673.09,0.74,0.65,0,0,n/a,0.0,0.0
2004,P.V.Q./G.P.Q.,8.0,0.0,0.0,3270.0,408.75,1.02,399.9,392.06,0.13,0.12,6.98,2870.1,411.19,0.87,0.88,0,0,n/a,0.0,0.0
2004,P.É./E.P.,8.0,0.0,0.0,2947.0,368.38,2.85,1010.55,354.58,0.36,0.34,5.15,1936.45,376.01,0.64,0.66,0,0,n/a,0.0,0.0
2004,U.F.P.,101.0,0.01,0.0,46427.55,459.68,36.36,13888.35,381.97,0.36,0.3,63.64,32139.2,505.02,0.63,0.69,1,400.0,400.0,0.01,0.01
2005,Tous,15923.0,1.0,1.0,11365586.280000001,713.78,4240.48,2937324.38,692.69,0.27,0.26,11619.52,8382740.9,721.44,0.73,0.74,63,45521.0,722.56,0.0,0.0
2005,A.D.Q.,526.01,0.03,0.03,332287.97,631.71,127.63,87566.79,686.1,0.24,0.26,396.38,240721.18,607.3,0.75,0.72,2,4000.0,2000.0,0.0,0.01
2005,B.P.,13.0,0.0,0.0,8215.0,631.92,3.03,1219.75,402.56,0.23,0.15,9.97,6995.25,701.63,0.77,0.85,0,0,n/a,0.0,0.0
2005,P.C.U.,1.0,0.0,0.0,500.0,500.0,1.0,500.0,500.0,1.0,1.0,0.0,0.0,n/a,0.0,0.0,0,0,n/a,0.0,0.0
2005,P.L.Q./Q.L.P.,8770.0,0.55,0.63,7193443.51,820.23,2288.91,1807383.24,789.63,0.26,0.25,6435.09,5354089.27,832.01,0.73,0.74,46,31971.0,695.02,0.01,0.0
2005,P.M.L.Q.,20.0,0.0,0.0,8000.0,400.0,7.61,3107.3,408.32,0.38,0.39,12.39,4892.7,394.89,0.62,0.61,0,0,n/a,0.0,0.0
2005,P.Q.,6393.0,0.4,0.33,3729385.8,583.35,1744.59,1010498.75,579.22,0.27,0.27,4635.41,2709817.05,584.59,0.73,0.73,13,9070.0,697.69,0.0,0.0
2005,P.U.N.,41.0,0.0,0.0,20435.0,498.41,11.62,7192.95,619.01,0.28,0.35,29.38,13242.05,450.72,0.72,0.65,0,0,n/a,0.0,0.0
2005,P.U.Q.,2.0,0.0,0.0,1400.0,700.0,0.0,0.0,n/a,0.0,0.0,2.0,1400.0,700.0,1.0,1.0,0,0,n/a,0.0,0.0
2005,P.V.Q./G.P.Q.,19.0,0.0,0.0,9235.0,486.05,7.25,2633.6,363.26,0.38,0.29,11.75,6601.4,561.82,0.62,0.71,0,0,n/a,0.0,0.0
2005,P.É./E.P.,5.0,0.0,0.0,1985.0,397.0,1.09,436.0,400.0,0.22,0.22,3.91,1549.0,396.16,0.78,0.78,0,0,n/a,0.0,0.0
2005,U.F.P.,132.99,0.01,0.01,60699.0,456.42,47.75,16785.99,351.54,0.36,0.28,83.24,43433.01,521.78,0.63,0.72,2,480.0,240.0,0.02,0.01
2006,Tous,16521.0,1.0,1.0,10924694.15,661.26,4400.45,2748614.45,624.62,0.27,0.25,12025.55,8120019.7,675.23,0.73,0.74,95,56060.0,590.11,0.01,0.01
2006,A.D.Q.,597.0,0.04,0.03,324438.89,543.45,146.25,80390.92,549.68,0.24,0.25,447.75,240147.97,536.34,0.75,0.74,3,3900.0,1300.0,0.01,0.01
2006,B.P.,13.0,0.0,0.0,5500.0,423.08,4.04,1614.5,399.63,0.31,0.29,8.96,3885.5,433.65,0.69,0.71,0,0,n/a,0.0,0.0
2006,P.C.Q.,3.0,0.0,0.0,3620.91,1206.97,0.03,36.21,1207.0,0.01,0.01,2.97,3584.7,1206.97,0.99,0.99,0,0,n/a,0.0,0.0
2006,P.L.Q./Q.L.P.,9037.0,0.55,0.67,7307488.47,808.62,2358.8,1780273.14,754.74,0.26,0.24,6615.2,5486210.33,829.33,0.73,0.75,63,41005.0,650.87,0.01,0.01
2006,P.M.L.Q.,27.0,0.0,0.0,11265.0,417.22,9.83,4273.35,434.73,0.36,0.38,17.17,6991.65,407.2,0.64,0.62,0,0,n/a,0.0,0.0
2006,P.Q.,6405.0,0.39,0.28,3080395.9299999997,480.94,1714.68,808956.09,471.78,0.27,0.26,4668.32,2262849.84,484.72,0.73,0.73,22,8590.0,390.45,0.0,0.0
2006,P.U.N.,25.0,0.0,0.0,12445.0,497.8,6.18,5024.95,813.1,0.25,0.4,18.82,7420.05,394.26,0.75,0.6,0,0,n/a,0.0,0.0
2006,P.U.Q.,3.0,0.0,0.0,1672.0,557.33,0.0,0.0,n/a,0.0,0.0,3.0,1672.0,557.33,1.0,1.0,0,0,n/a,0.0,0.0
2006,P.V.Q./G.P.Q.,26.0,0.0,0.0,10934.880000000001,420.57,6.92,2380.35,343.98,0.27,0.22,19.08,8554.53,448.35,0.73,0.78,0,0,n/a,0.0,0.0
2006,P.É./E.P.,4.0,0.0,0.0,1590.0,397.5,1.09,436.0,400.0,0.27,0.27,2.91,1154.0,396.56,0.73,0.73,0,0,n/a,0.0,0.0
2006,Q.S.,379.0,0.02,0.02,164543.07,434.15,152.63,65228.94,427.37,0.4,0.4,219.37,96749.13,441.03,0.58,0.59,7,2565.0,366.43,0.02,0.02
2006,V.Q.,2.0,0.0,0.0,800.0,400.0,0.0,0.0,n/a,0.0,0.0,2.0,800.0,400.0,1.0,1.0,0,0,n/a,0.0,0.0
2007,Tous,18843.0,1.0,1.0,13620483.82,722.84,5237.44,3613142.86,689.87,0.28,0.27,13490.56,9896929.96,733.62,0.72,0.73,115,110411.0,960.1,0.01,0.01
2007,A.D.Q.,3361.9900000000002,0.18,0.22,3031752.54,901.77,901.07,869018.8,964.43,0.27,0.29,2425.92,2112933.74,870.98,0.72,0.7,35,49800.0,1422.86,0.01,0.02
2007,B.P.,11.0,0.0,0.0,4500.0,409.09,5.02,2008.0,400.0,0.46,0.45,5.98,2492.0,416.72,0.54,0.55,0,0,n/a,0.0,0.0
2007,P.C.Q.,4.0,0.0,0.0,3665.0,916.25,0.06,48.72,812.0,0.01,0.01,3.94,3616.28,917.84,0.98,0.99,0,0,n/a,0.0,0.0
2007,P.L.Q./Q.L.P.,7378.0,0.39,0.47,6428638.279999999,871.33,1873.45,1550640.72,827.69,0.25,0.24,5447.55,4828271.56,886.32,0.74,0.75,57,49726.0,872.39,0.01,0.01
2007,P.M.L.Q.,27.0,0.0,0.0,9405.0,348.33,10.05,3708.1,368.97,0.37,0.39,16.95,5696.9,336.1,0.63,0.61,0,0,n/a,0.0,0.0
2007,P.Q.,7243.0,0.38,0.28,3769235.83,520.4,2126.89,1045546.99,491.58,0.29,0.28,5100.11,2715513.84,532.44,0.7,0.72,16,8175.0,510.94,0.0,0.0
2007,P.U.N.,33.0,0.0,0.0,22454.0,680.42,13.1,6591.79,503.19,0.4,0.29,18.9,15172.21,802.76,0.57,0.68,1,690.0,690.0,0.03,0.03
2007,P.V.Q./G.P.Q.,110.0,0.01,0.0,50315.0,457.41,29.38,12743.7,433.75,0.27,0.25,80.62,37571.3,466.03,0.73,0.75,0,0,n/a,0.0,0.0
2007,P.É./E.P.,4.0,0.0,0.0,1600.0,400.0,1.14,456.0,400.0,0.28,0.28,2.86,1144.0,400.0,0.71,0.71,0,0,n/a,0.0,0.0
2007,Q.S.,671.0,0.04,0.02,298918.17,445.48,277.28,122380.04,441.36,0.41,0.41,387.72,174518.13,450.11,0.58,0.58,6,2020.0,336.67,0.01,0.01
2008,Tous,21519.0,1.0,1.0,14837932.5,689.53,6144.0,4079192.05,663.93,0.29,0.27,15246.0,10660262.45,699.22,0.71,0.72,129,98478.0,763.4,0.01,0.01
2008,A.D.Q.,2615.0,0.12,0.12,1707801.24,653.08,695.0,484369.29,696.93,0.27,0.28,1890.0,1192378.95,630.89,0.72,0.7,30,31053.0,1035.1,0.01,0.02
2008,B.P.,10.0,0.0,0.0,3850.0,385.0,7.0,2650.0,378.57,0.7,0.69,3.0,1200.0,400.0,0.3,0.31,0,0,n/a,0.0,0.0
2008,P.C.Q.,7.0,0.0,0.0,5217.0,745.29,1.08,403.98,374.06,0.15,0.08,5.92,4813.02,813.01,0.85,0.92,0,0,n/a,0.0,0.0
2008,P.I.,45.0,0.0,0.0,33792.0,750.93,12.4,7368.71,594.25,0.28,0.22,32.6,26423.29,810.53,0.72,0.78,0,0,n/a,0.0,0.0
2008,P.L.Q./Q.L.P.,9531.0,0.44,0.56,8352072.67,876.31,2499.19,2165198.29,866.36,0.26,0.26,6957.81,6131369.38,881.22,0.73,0.73,74,55505.0,750.07,0.01,0.01
2008,P.M.L.Q.,16.0,0.0,0.0,5825.0,364.06,5.17,1911.6,369.75,0.32,0.33,10.83,3913.4,361.35,0.68,0.67,0,0,n/a,0.0,0.0
2008,P.Q.,8380.0,0.39,0.29,4332427.05,517.0,2543.12,1254354.77,493.23,0.3,0.29,5820.88,3069357.28,527.3,0.69,0.71,16,8715.0,544.69,0.0,0.0
2008,P.U.N.,29.990000000000002,0.0,0.0,12490.0,416.47,12.08,5388.55,446.07,0.4,0.43,17.91,7101.45,396.51,0.6,0.57,0,0,n/a,0.0,0.0
2008,P.V.Q./G.P.Q.,100.0,0.0,0.0,39772.8,397.73,32.45,13362.7,411.79,0.32,0.34,66.55,26010.1,390.84,0.67,0.65,1,400.0,400.0,0.01,0.01
2008,Q.S.,745.0,0.03,0.02,326464.74,438.21,325.65,139940.36,429.73,0.44,0.43,411.35,183719.38,446.63,0.55,0.56,8,2805.0,350.62,0.01,0.01
2008,U.C.,40.0,0.0,0.0,18220.0,455.5,10.86,4243.8,390.77,0.27,0.23,29.14,13976.2,479.62,0.73,0.77,0,0,n/a,0.0,0.0
2009,Tous,14646.0,1.0,1.0,9452508.85,645.4,4080.87,2419884.22,592.98,0.28,0.26,10483.13,6987144.63,666.51,0.72,0.74,82,45480.0,554.63,0.01,0.0
2009,A.D.Q.,595.0,0.04,0.04,340521.07,572.3,149.72,93733.45,626.06,0.25,0.28,442.28,245817.62,555.8,0.74,0.72,3,970.0,323.33,0.01,0.0
2009,B.P.,12.0,0.0,0.0,4700.0,391.67,6.0,2400.0,400.0,0.5,0.51,6.0,2300.0,383.33,0.5,0.49,0,0,n/a,0.0,0.0
2009,N.A.Q.C.,20.0,0.0,0.0,7700.0,385.0,8.21,3184.0,387.82,0.41,0.41,11.79,4516.0,383.04,0.59,0.59,0,0,n/a,0.0,0.0
2009,P.D.Q.,1.0,0.0,0.0,318.0,318.0,0.0,0.0,n/a,0.0,0.0,1.0,318.0,318.0,1.0,1.0,0,0,n/a,0.0,0.0
2009,P.I.,12.0,0.0,0.0,14681.0,1223.42,2.01,3322.2,1652.84,0.17,0.23,9.99,11358.8,1137.02,0.83,0.77,0,0,n/a,0.0,0.0
2009,P.L.Q./Q.L.P.,8129.0,0.56,0.66,6277665.9399999995,772.26,2098.04,1483048.81,706.87,0.26,0.24,5965.96,4756337.13,797.25,0.73,0.76,65,38280.0,588.92,0.01,0.01
2009,P.M.L.Q.,20.0,0.0,0.0,7680.0,384.0,7.28,2712.9,372.65,0.36,0.35,12.72,4967.1,390.5,0.64,0.65,0,0,n/a,0.0,0.0
2009,P.Q.,5354.99,0.37,0.27,2599364.67,485.41,1605.94,752871.41,468.8,0.3,0.29,3738.05,1841623.26,492.67,0.7,0.71,11,4870.0,442.73,0.0,0.0
2009,P.U.N.,13.0,0.0,0.0,5950.0,457.69,3.6,1823.85,506.62,0.28,0.31,9.4,4126.15,438.95,0.72,0.69,0,0,n/a,0.0,0.0
2009,P.V.Q./G.P.Q.,50.0,0.0,0.0,23084.04,461.68,11.32,3934.82,347.6,0.23,0.17,38.68,19149.22,495.07,0.77,0.83,0,0,n/a,0.0,0.0
2009,Q.S.,438.0,0.03,0.02,170285.96000000002,388.78,188.74,72852.77,386.0,0.43,0.43,246.26,96073.19,390.13,0.56,0.56,3,1360.0,453.33,0.01,0.01
2009,U.C.,1.0,0.0,0.0,558.17,558.17,0.0,0.0,n/a,0.0,0.0,1.0,558.17,558.17,1.0,1.0,0,0,n/a,0.0,0.0
2010,Tous,12960.0,1.0,1.0,7001272.63,540.22,3639.63,1775162.22,487.73,0.28,0.25,9265.37,5192655.41,560.44,0.71,0.74,55,33455.0,608.27,0.0,0.0
2010,A.D.Q.,295.01,0.02,0.02,141433.43,479.42,68.12,29249.97,429.39,0.23,0.21,226.89,112183.46,494.44,0.77,0.79,0,0,n/a,0.0,0.0
2010,B.P.,15.0,0.0,0.0,6000.0,400.0,8.0,3200.0,400.0,0.53,0.53,7.0,2800.0,400.0,0.47,0.47,0,0,n/a,0.0,0.0
2010,M.E.Q.,2.0,0.0,0.0,1000.0,500.0,2.0,1000.0,500.0,1.0,1.0,0.0,0.0,n/a,0.0,0.0,0,0,n/a,0.0,0.0
2010,N.A.Q.C.,16.0,0.0,0.0,6400.0,400.0,6.21,2484.0,400.0,0.39,0.39,9.79,3916.0,400.0,0.61,0.61,0,0,n/a,0.0,0.0
2010,P.C.Q.,4.0,0.0,0.0,4491.0,1122.75,0.03,41.12,1370.67,0.01,0.01,3.97,4449.88,1120.88,0.99,0.99,0,0,n/a,0.0,0.0
2010,P.I.,10.0,0.0,0.0,5051.0,505.1,1.01,412.05,407.97,0.1,0.08,8.99,4638.95,516.01,0.9,0.92,0,0,n/a,0.0,0.0
2010,P.L.Q./Q.L.P.,6437.0,0.5,0.6,4193143.67,651.41,1695.53,963316.55,568.15,0.26,0.23,4701.47,3204492.12,681.59,0.73,0.76,40,25335.0,633.38,0.01,0.01
2010,P.M.L.Q.,17.0,0.0,0.0,6455.0,379.71,6.29,2390.5,380.05,0.37,0.37,10.71,4064.5,379.51,0.63,0.63,0,0,n/a,0.0,0.0
2010,P.Q.,5521.0,0.43,0.34,2372927.6,429.8,1584.04,669998.23,422.97,0.29,0.28,3924.96,1696119.37,432.14,0.71,0.71,12,6810.0,567.5,0.0,0.0
2010,P.U.N.,24.0,0.0,0.0,10390.0,432.92,8.89,3954.95,444.88,0.37,0.38,15.11,6435.05,425.88,0.63,0.62,0,0,n/a,0.0,0.0
2010,P.V.Q./G.P.Q.,30.0,0.0,0.0,10650.0,355.0,8.11,2993.45,369.11,0.27,0.28,21.89,7656.55,349.77,0.73,0.72,0,0,n/a,0.0,0.0
2010,Q.S.,589.0,0.05,0.03,243330.93,413.13,251.4,96121.39,382.34,0.43,0.4,334.6,145899.54,436.04,0.57,0.6,3,1310.0,436.67,0.01,0.01
2011,Tous,27697.0,1.0,1.0,6698275.86,241.84,9212.36,1825251.3,198.13,0.33,0.27,18325.64,4839748.58,264.1,0.66,0.72,159,33275.98,209.28,0.01,0.0
2011,A.D.Q.,781.0,0.03,0.02,166493.22,213.18,192.43,30898.7,160.57,0.25,0.19,583.57,133194.52,228.24,0.75,0.8,5,2400.0,480.0,0.01,0.01
2011,B.P.,11.0,0.0,0.0,3800.0,345.45,5.02,1807.0,359.96,0.46,0.48,5.98,1993.0,333.28,0.54,0.52,0,0,n/a,0.0,0.0
2011,C.A.Q.,1932.0,0.07,0.07,466263.0,241.34,353.64,91380.47,258.4,0.18,0.2,1570.36,372482.53,237.2,0.81,0.8,8,2400.0,300.0,0.0,0.01
2011,C.A.Q.- É.F.L.,15.0,0.0,0.0,2915.0,194.33,4.02,1260.35,313.52,0.27,0.43,9.98,1634.65,163.79,0.67,0.56,1,20.0,20.0,0.07,0.01
2011,M.E.Q.,1.0,0.0,0.0,500.0,500.0,1.0,500.0,500.0,1.0,1.0,0.0,0.0,n/a,0.0,0.0,0,0,n/a,0.0,0.0
2011,N.A.Q.C.,5.0,0.0,0.0,1900.0,380.0,3.01,1104.0,366.78,0.6,0.58,1.99,796.0,400.0,0.4,0.42,0,0,n/a,0.0,0.0
2011,O.N.,241.0,0.01,0.0,31710.010000000002,131.58,55.51,5677.85,102.29,0.23,0.18,185.49,26032.16,140.34,0.77,0.82,0,0,n/a,0.0,0.0
2011,P.C.Q.,13.0,0.0,0.0,1805.0,138.85,1.88,58.11,30.91,0.14,0.03,11.12,1746.89,157.09,0.86,0.97,0,0,n/a,0.0,0.0
2011,P.I.,70.0,0.0,0.0,7565.01,108.07,18.2,1007.35,55.35,0.26,0.13,51.8,6557.66,126.6,0.74,0.87,0,0,n/a,0.0,0.0
2011,P.L.Q./Q.L.P.,12326.0,0.45,0.53,3518475.17,285.45,3878.73,888984.71,229.19,0.31,0.25,8327.27,2605455.46,312.88,0.68,0.74,120,24035.0,200.29,0.01,0.01
2011,P.M.L.Q.,18.0,0.0,0.0,5590.0,310.56,7.29,2102.1,288.35,0.41,0.38,10.71,3487.9,325.67,0.6,0.62,0,0,n/a,0.0,0.0
2011,P.N.,2.0,0.0,0.0,800.0,400.0,0.99,396.0,400.0,0.49,0.49,1.01,404.0,400.0,0.51,0.51,0,0,n/a,0.0,0.0
2011,P.Q.,9592.0,0.35,0.31,2092930.57,218.2,3477.0,632676.22,181.96,0.36,0.3,6098.0,1457783.35,239.06,0.64,0.7,17,2471.0,145.35,0.0,0.0
2011,P.U.N.,21.0,0.0,0.0,6735.0,320.71,5.89,1998.5,339.3,0.28,0.3,15.11,4736.5,313.47,0.72,0.7,0,0,n/a,0.0,0.0
2011,P.V.Q./G.P.Q.,75.0,0.0,0.0,10232.0,136.43,16.65,1961.77,117.82,0.22,0.19,58.35,8270.23,141.73,0.78,0.81,0,0,n/a,0.0,0.0
2011,Q.R.D.,11.0,0.0,0.0,380.0,34.55,2.27,13.0,5.73,0.21,0.03,8.73,367.0,42.04,0.79,0.97,0,0,n/a,0.0,0.0
2011,Q.S.,2582.0,0.09,0.06,380151.88,147.23,1188.81,163424.57,137.47,0.46,0.43,1385.19,214777.33,155.05,0.54,0.56,8,1949.98,243.75,0.0,0.01
2011,É.A.P. - P.C.Q.,1.0,0.0,0.0,30.0,30.0,0.02,0.6,30.0,0.02,0.02,0.98,29.4,30.0,0.98,0.98,0,0,n/a,0.0,0.0
2012,Tous,51136.0,1.0,1.0,10155126.99,198.59,18159.35,3086998.21,169.99,0.36,0.3,32758.65,7028276.05,214.55,0.64,0.69,218,39852.73,182.81,0.0,0.0
2012,A.D.Q.,3.0,0.0,0.0,210.0,70.0,1.0,100.0,100.0,0.33,0.48,2.0,110.0,55.0,0.67,0.52,0,0,n/a,0.0,0.0
2012,B.P.,18.0,0.0,0.0,6649.99,369.44,7.09,2899.4,408.94,0.39,0.44,10.91,3750.59,343.78,0.61,0.56,0,0,n/a,0.0,0.0
2012,C.A.Q.,335.0,0.01,0.01,58756.0,175.39,56.88,9481.95,166.7,0.17,0.16,278.12,49274.05,177.17,0.83,0.84,0,0,n/a,0.0,0.0
2012,C.A.Q.- É.F.L.,8399.0,0.16,0.19,1922750.57,228.93,2413.67,513090.83,212.58,0.29,0.27,5935.33,1398335.74,235.6,0.71,0.73,50,11324.0,226.48,0.01,0.01
2012,C.P.Q.,54.989999999999995,0.0,0.0,3964.0,72.09,19.59,1226.81,62.62,0.36,0.31,35.4,2737.19,77.32,0.64,0.69,0,0,n/a,0.0,0.0
2012,M.E.Q.,1.0,0.0,0.0,500.0,500.0,0.03,15.0,500.0,0.03,0.03,0.97,485.0,500.0,0.97,0.97,0,0,n/a,0.0,0.0
2012,M.P.Q.,15.0,0.0,0.0,4052.0,270.13,5.28,1367.16,258.93,0.35,0.34,9.72,2684.84,276.22,0.65,0.66,0,0,n/a,0.0,0.0
2012,O.N.,2501.0,0.05,0.03,260359.62,104.1,811.87,77457.37,95.41,0.32,0.3,1686.13,182782.25,108.4,0.67,0.7,3,120.0,40.0,0.0,0.0
2012,P.C.M.Q.,10.0,0.0,0.0,3198.0,319.8,1.06,92.79,87.54,0.11,0.03,8.94,3105.21,347.34,0.89,0.97,0,0,n/a,0.0,0.0
2012,P.C.Q.,9.0,0.0,0.0,1276.0,141.78,0.08,11.49,143.62,0.01,0.01,8.92,1264.51,141.76,0.99,0.99,0,0,n/a,0.0,0.0
2012,P.I.,41.0,0.0,0.0,10075.01,245.73,5.88,1284.4,218.44,0.14,0.13,35.12,8790.61,250.3,0.86,0.87,0,0,n/a,0.0,0.0
2012,P.L.Q./Q.L.P.,11232.0,0.22,0.3,3076103.4099999997,273.87,3462.08,790006.48,228.19,0.31,0.26,7679.92,2268938.15,295.44,0.68,0.74,90,17158.78,190.65,0.01,0.01
2012,P.M.L.Q.,45.0,0.0,0.0,16995.0,377.67,15.56,6799.4,436.98,0.35,0.4,28.44,10185.6,358.14,0.63,0.6,1,10.0,10.0,0.02,0.0
2012,P.N.,5.0,0.0,0.0,555.0,111.0,1.0,25.0,25.0,0.2,0.05,4.0,530.0,132.5,0.8,0.95,0,0,n/a,0.0,0.0
2012,P.Q.,21972.0,0.43,0.37,3738324.33,170.14,8290.0,1224080.55,147.66,0.38,0.33,13636.0,2507258.78,183.87,0.62,0.67,46,6985.0,151.85,0.0,0.0
2012,P.U.N.,42.0,0.0,0.0,10281.07,244.79,15.31,3438.7,224.6,0.36,0.33,26.69,6842.37,256.36,0.64,0.67,0,0,n/a,0.0,0.0
2012,P.V.Q./G.P.Q.,116.0,0.0,0.0,20932.8,180.46,32.0,4487.03,140.22,0.28,0.21,84.0,16445.77,195.78,0.72,0.79,0,0,n/a,0.0,0.0
2012,P.Éq,2.0,0.0,0.0,795.84,397.92,0.02,2.0,100.0,0.01,0.0,1.98,793.84,400.93,0.99,1.0,0,0,n/a,0.0,0.0
2012,Q.R.D.,2.0,0.0,0.0,410.0,205.0,0.0,0.0,n/a,0.0,0.0,2.0,410.0,205.0,1.0,1.0,0,0,n/a,0.0,0.0
2012,Q.S.,6081.0,0.12,0.1,970972.72,159.67,2949.43,437270.43,148.26,0.49,0.45,3105.57,529502.34,170.5,0.51,0.55,26,4199.95,161.54,0.0,0.0
2012,U.C.Q./Q.C.U.,69.99,0.0,0.0,8914.76,127.37,17.19,2284.6,132.9,0.25,0.26,51.8,6615.16,127.71,0.74,0.74,1,15.0,15.0,0.01,0.0
2012,É.A.,53.0,0.0,0.0,12974.880000000001,244.81,11.98,2274.03,189.82,0.23,0.18,40.02,10660.85,266.39,0.76,0.82,1,40.0,40.0,0.02,0.0
2012,É.A.P. - P.C.Q.,129.0,0.0,0.0,26076.0,202.14,42.35,9302.8,219.66,0.33,0.36,86.65,16773.2,193.57,0.67,0.64,0,0,n/a,0.0,0.0
2013,Tous,33713.009999999995,1.0,1.0,2490984.32,73.89,12650.09,878797.68,69.47,0.38,0.35,20944.92,1603606.64,76.56,0.62,0.64,118,8580.0,72.71,0.0,0.0
2013,B.P.,83.0,0.0,0.0,6385.0,76.93,29.96,2447.9,81.71,0.36,0.38,52.04,3927.1,75.46,0.63,0.62,1,10.0,10.0,0.01,0.0
2013,C.A.Q.- É.F.L.,2035.0,0.06,0.07,163509.0,80.35,650.04,51224.95,78.8,0.32,0.31,1380.96,112039.05,81.13,0.68,0.69,4,245.0,61.25,0.0,0.0
2013,C.P.Q.,15.0,0.0,0.0,385.0,25.67,2.99,35.55,11.89,0.2,0.09,12.01,349.45,29.1,0.8,0.91,0,0,n/a,0.0,0.0
2013,M.P.Q.,4.0,0.0,0.0,95.0,23.75,0.99,19.8,20.0,0.25,0.21,3.01,75.2,24.98,0.75,0.79,0,0,n/a,0.0,0.0
2013,O.N.,752.0,0.02,0.02,41067.5,54.61,229.69,10851.82,47.25,0.31,0.26,521.31,30115.68,57.77,0.69,0.73,1,100.0,100.0,0.0,0.0
2013,P.C.M.Q.,6.0,0.0,0.0,600.0,100.0,3.02,302.0,100.0,0.5,0.5,2.98,298.0,100.0,0.5,0.5,0,0,n/a,0.0,0.0
2013,P.I.,77.0,0.0,0.0,6825.0,88.64,26.28,2430.85,92.5,0.34,0.36,50.72,4394.15,86.64,0.66,0.64,0,0,n/a,0.0,0.0
2013,P.L.Q./Q.L.P.,10940.0,0.32,0.37,920636.84,84.15,3648.74,291339.0,79.85,0.33,0.32,7209.26,622977.84,86.41,0.66,0.68,82,6320.0,77.07,0.01,0.01
2013,P.M.L.Q.,55.0,0.0,0.0,5050.0,91.82,19.8,1701.65,85.94,0.36,0.34,35.2,3348.35,95.12,0.64,0.66,0,0,n/a,0.0,0.0
2013,P.Q.,16396.0,0.49,0.44,1105651.96,67.43,6487.01,411219.19,63.39,0.4,0.37,9884.99,692902.77,70.1,0.6,0.63,24,1530.0,63.75,0.0,0.0
2013,P.U.N.,69.00999999999999,0.0,0.0,4635.0,67.16,26.9,1857.25,69.04,0.39,0.4,42.11,2777.75,65.96,0.61,0.6,0,0,n/a,0.0,0.0
2013,P.V.Q./G.P.Q.,97.0,0.0,0.0,5980.26,61.65,31.94,1859.41,58.22,0.33,0.31,65.06,4120.85,63.34,0.67,0.69,0,0,n/a,0.0,0.0
2013,P.Éq,5.0,0.0,0.0,345.0,69.0,2.5,173.3,69.32,0.5,0.5,2.5,171.7,68.68,0.5,0.5,0,0,n/a,0.0,0.0
2013,Q.R.D.,5.0,0.0,0.0,390.0,78.0,1.24,123.4,99.52,0.25,0.32,3.76,266.6,70.9,0.75,0.68,0,0,n/a,0.0,0.0
2013,Q.S.,2969.0,0.09,0.09,213262.76,71.83,1434.16,99100.61,69.1,0.48,0.46,1529.84,113887.15,74.44,0.52,0.53,5,275.0,55.0,0.0,0.0
2013,U.C.Q./Q.C.U.,9.0,0.0,0.0,296.0,32.89,2.01,60.4,30.05,0.22,0.2,6.99,235.6,33.71,0.78,0.8,0,0,n/a,0.0,0.0
2013,É.A.,26.0,0.0,0.0,1305.0,50.19,6.86,310.6,45.28,0.26,0.24,18.14,894.4,49.31,0.7,0.69,1,100.0,100.0,0.04,0.08
2013,É.A.P. - P.C.Q.,170.0,0.01,0.01,14565.0,85.68,45.95,3740.0,81.39,0.27,0.26,124.05,10825.0,87.26,0.73,0.74,0,0,n/a,0.0,0.0
2014,Tous,38231.0,1.0,1.0,3567172.74,93.31,14116.97,1232866.01,87.33,0.37,0.35,24012.03,2325164.73,96.83,0.63,0.65,102,9142.0,89.63,0.0,0.0
2014,B.P.,82.0,0.0,0.0,5322.01,64.9,22.55,1650.15,73.18,0.28,0.31,58.45,3649.86,62.44,0.71,0.69,1,22.0,22.0,0.01,0.0
2014,C.A.Q.- É.F.L.,2245.0,0.06,0.07,234393.0,104.41,687.44,69803.7,101.54,0.31,0.3,1548.56,163959.3,105.88,0.69,0.7,9,630.0,70.0,0.0,0.0
2014,C.P.Q.,12.0,0.0,0.0,1390.01,115.83,3.51,550.2,156.75,0.29,0.4,7.49,789.81,105.45,0.62,0.57,1,50.0,50.0,0.08,0.04
2014,M.P.Q.,52.0,0.0,0.0,3632.0099999999998,69.85,26.31,1404.6,53.39,0.51,0.39,25.69,2227.41,86.7,0.49,0.61,0,0,n/a,0.0,0.0
2014,N.P.D.Q.,15.0,0.0,0.0,898.3299999999999,59.89,2.3,64.17,27.9,0.15,0.07,12.7,834.16,65.68,0.85,0.93,0,0,n/a,0.0,0.0
2014,O.N.,518.0,0.01,0.01,46098.03,88.99,159.03,13693.27,86.1,0.31,0.3,358.97,32404.76,90.27,0.69,0.7,0,0,n/a,0.0,0.0
2014,P.I.,109.0,0.0,0.0,16054.010000000002,147.28,43.1,6659.81,154.52,0.4,0.41,65.9,9394.2,142.55,0.6,0.59,0,0,n/a,0.0,0.0
2014,P.L.Q./Q.L.P.,12950.0,0.34,0.39,1400758.17,108.17,4216.13,430809.24,102.18,0.33,0.31,8660.87,962868.93,111.17,0.67,0.69,73,7080.0,96.99,0.01,0.01
2014,P.M.L.Q.,65.0,0.0,0.0,7600.01,116.92,22.67,2367.9,104.45,0.35,0.31,42.33,5232.11,123.6,0.65,0.69,0,0,n/a,0.0,0.0
2014,P.N.,6.0,0.0,0.0,223.01000000000002,37.17,2.01,73.4,36.52,0.33,0.33,3.99,149.61,37.5,0.67,0.67,0,0,n/a,0.0,0.0
2014,P.Q.,17834.0,0.47,0.41,1448654.69,81.23,6947.87,531711.88,76.53,0.39,0.37,10875.13,916062.81,84.23,0.61,0.63,11,880.0,80.0,0.0,0.0
2014,P.U.N.,104.0,0.0,0.0,14095.01,135.53,42.34,5789.57,136.74,0.41,0.41,61.66,8305.44,134.7,0.59,0.59,0,0,n/a,0.0,0.0
2014,P.V.Q./G.P.Q.,96.0,0.0,0.0,6050.0,63.02,31.46,1696.25,53.92,0.33,0.28,62.54,4253.75,68.02,0.65,0.7,2,100.0,50.0,0.02,0.02
2014,P.Éq,22.0,0.0,0.0,1479.01,67.23,9.59,772.15,80.52,0.44,0.52,12.41,706.86,56.96,0.56,0.48,0,0,n/a,0.0,0.0
2014,Q.R.D.,7.0,0.0,0.0,390.01,55.72,1.22,72.5,59.43,0.17,0.19,5.78,317.51,54.93,0.83,0.81,0,0,n/a,0.0,0.0
2014,Q.S.,3765.0,0.1,0.1,347640.41000000003,92.33,1816.09,158465.04,87.26,0.48,0.46,1945.91,188995.37,97.12,0.52,0.54,3,180.0,60.0,0.0,0.0
2014,U.C.Q./Q.C.U.,14.0,0.0,0.0,330.01,23.57,1.01,10.15,10.05,0.07,0.03,12.99,319.86,24.62,0.93,0.97,0,0,n/a,0.0,0.0
2014,É.A.,16.0,0.0,0.0,1945.01,121.56,2.5,253.1,101.24,0.16,0.13,12.5,1591.91,127.35,0.78,0.82,1,100.0,100.0,0.06,0.05
2014,É.A.P. - P.C.Q.,319.01,0.01,0.01,30220.0,94.73,79.84,7018.95,87.91,0.25,0.23,238.17,23101.05,96.99,0.75,0.76,1,100.0,100.0,0.0,0.0
2015,Tous,30476.0,1.0,1.0,2129181.28,69.86,11497.44,754121.32,65.59,0.38,0.35,18899.56,1369554.96,72.46,0.62,0.64,79,5505.0,69.68,0.0,0.0
2015,B.P.,89.00999999999999,0.0,0.0,3814.0,42.85,18.21,837.05,45.97,0.2,0.22,69.8,2926.95,41.93,0.78,0.77,1,50.0,50.0,0.01,0.01
2015,C.A.Q.- É.F.L.,1491.0,0.05,0.06,130899.98999999999,87.79,472.81,40340.35,85.32,0.32,0.31,1014.19,90324.64,89.06,0.68,0.69,4,235.0,58.75,0.0,0.0
2015,C.P.Q.,1.0,0.0,0.0,20.0,20.0,0.0,0.0,n/a,0.0,0.0,1.0,20.0,20.0,1.0,1.0,0,0,n/a,0.0,0.0
2015,M.P.Q.,18.0,0.0,0.0,740.0,41.11,10.99,459.0,41.77,0.61,0.62,7.01,281.0,40.09,0.39,0.38,0,0,n/a,0.0,0.0
2015,N.P.D.Q.,13.0,0.0,0.0,865.0,66.54,4.54,291.7,64.25,0.35,0.34,8.46,573.3,67.77,0.65,0.66,0,0,n/a,0.0,0.0
2015,O.N.,885.0,0.03,0.01,28849.5,32.6,259.9,8249.53,31.74,0.29,0.29,625.1,20599.97,32.95,0.71,0.71,0,0,n/a,0.0,0.0
2015,P.I.,273.0,0.01,0.01,26247.0,96.14,113.88,11171.05,98.09,0.42,0.43,156.12,14775.95,94.64,0.57,0.56,3,300.0,100.0,0.01,0.01
2015,P.L.Q./Q.L.P.,11389.0,0.37,0.44,932270.0499999999,81.86,3882.76,298393.98,76.85,0.34,0.32,7444.24,629551.07,84.57,0.65,0.68,62,4325.0,69.76,0.01,0.0
2015,P.M.L.Q.,66.0,0.0,0.0,6050.0,91.67,18.78,1707.8,90.94,0.28,0.28,47.22,4342.2,91.96,0.72,0.72,0,0,n/a,0.0,0.0
2015,P.Q.,12644.0,0.41,0.35,739971.2,58.52,4925.85,269575.16,54.73,0.39,0.36,7710.15,469901.04,60.95,0.61,0.64,8,495.0,61.88,0.0,0.0
2015,P.T.Q.,14.0,0.0,0.0,1005.0,71.79,6.04,432.1,71.54,0.43,0.43,7.96,572.9,71.97,0.57,0.57,0,0,n/a,0.0,0.0
2015,P.U.N.,50.0,0.0,0.0,4008.0,80.16,17.02,1417.04,83.26,0.34,0.35,32.98,2590.96,78.56,0.66,0.65,0,0,n/a,0.0,0.0
2015,P.V.Q./G.P.Q.,39.0,0.0,0.0,2522.0,64.67,13.91,1069.72,76.9,0.36,0.42,25.09,1452.28,57.88,0.64,0.58,0,0,n/a,0.0,0.0
2015,P.Éq,5.0,0.0,0.0,355.0,71.0,3.09,164.0,53.07,0.62,0.46,1.91,191.0,100.0,0.38,0.54,0,0,n/a,0.0,0.0
2015,Q.S.,3345.0,0.11,0.11,239367.54,71.56,1714.27,117043.13,68.28,0.51,0.49,1629.73,122224.41,75.0,0.49,0.51,1,100.0,100.0,0.0,0.0
2015,U.C.Q./Q.C.U.,12.0,0.0,0.0,442.0,36.83,4.1,232.6,56.73,0.34,0.53,7.9,209.4,26.51,0.66,0.47,0,0,n/a,0.0,0.0
2015,É.A.,12.0,0.0,0.0,1070.0,89.17,3.48,280.0,80.46,0.29,0.26,8.52,790.0,92.72,0.71,0.74,0,0,n/a,0.0,0.0
2015,É.A.P. - P.C.Q.,130.0,0.0,0.01,10685.0,82.19,27.81,2457.1,88.35,0.21,0.23,102.19,8227.9,80.52,0.79,0.77,0,0,n/a,0.0,0.0
2016,Tous,33834.01,1.0,1.0,2311717.32,68.33,13088.6,836794.83,63.93,0.39,0.36,20676.41,1470552.49,71.12,0.61,0.64,69,4370.0,63.33,0.0,0.0
2016,B.P.,41.0,0.0,0.0,1952.0,47.61,11.33,484.35,42.75,0.28,0.25,29.67,1467.65,49.47,0.72,0.75,0,0,n/a,0.0,0.0
2016,C.A.Q.- É.F.L.,2381.0,0.07,0.08,196484.01,82.52,744.73,56044.11,75.25,0.31,0.29,1632.27,140039.9,85.79,0.69,0.71,4,400.0,100.0,0.0,0.0
2016,C.I.N.Q.,2.0,0.0,0.0,125.0,62.5,1.0,100.0,100.0,0.5,0.8,1.0,25.0,25.0,0.5,0.2,0,0,n/a,0.0,0.0
2016,C.P.Q.,44.0,0.0,0.0,1852.0,42.09,8.45,267.0,31.6,0.19,0.14,34.55,1485.0,42.98,0.79,0.8,1,100.0,100.0,0.02,0.05
2016,N.P.D.Q.,100.0,0.0,0.0,4541.37,45.41,26.61,1256.54,47.22,0.27,0.28,72.39,3184.83,44.0,0.72,0.7,1,100.0,100.0,0.01,0.02
2016,O.N.,510.0,0.02,0.01,25085.34,49.19,140.58,6189.93,44.03,0.28,0.25,369.42,18895.41,51.15,0.72,0.75,0,0,n/a,0.0,0.0
2016,P.I.,242.0,0.01,0.01,23350.0,96.49,104.07,10083.65,96.89,0.43,0.43,137.93,13266.35,96.18,0.57,0.57,0,0,n/a,0.0,0.0
2016,P.L.Q./Q.L.P.,10508.0,0.31,0.39,895929.57,85.26,3772.69,305832.88,81.06,0.36,0.34,6691.31,586971.69,87.72,0.64,0.66,44,3125.0,71.02,0.0,0.0
2016,P.M.L.Q.,74.0,0.0,0.0,6545.0,88.45,22.94,1807.9,78.81,0.31,0.28,51.06,4737.1,92.78,0.69,0.72,0,0,n/a,0.0,0.0
2016,P.Q.,16207.0,0.48,0.38,884271.3800000001,54.56,6453.15,326497.34,50.6,0.4,0.37,9738.85,557229.04,57.22,0.6,0.63,15,545.0,36.33,0.0,0.0
2016,P.T.Q.,24.0,0.0,0.0,1530.0,63.75,9.04,512.85,56.73,0.38,0.34,14.96,1017.15,67.99,0.62,0.66,0,0,n/a,0.0,0.0
2016,P.U.N.,84.0,0.0,0.0,6422.0,76.45,27.86,2407.74,86.42,0.33,0.37,56.14,4014.26,71.5,0.67,0.63,0,0,n/a,0.0,0.0
2016,P.V.Q./G.P.Q.,22.0,0.0,0.0,1566.0,71.18,5.72,469.6,82.1,0.26,0.3,16.28,1096.4,67.35,0.74,0.7,0,0,n/a,0.0,0.0
2016,P.Éq,2.0,0.0,0.0,200.0,100.0,1.01,101.0,100.0,0.51,0.51,0.99,99.0,100.0,0.49,0.49,0,0,n/a,0.0,0.0
2016,P51,14.0,0.0,0.0,1190.0,85.0,8.04,594.0,73.88,0.57,0.5,5.96,596.0,100.0,0.43,0.5,0,0,n/a,0.0,0.0
2016,Q.S.,3492.0,0.1,0.11,253683.65999999997,72.65,1736.95,122898.65,70.76,0.5,0.48,1751.05,130685.01,74.63,0.5,0.52,4,100.0,25.0,0.0,0.0
2016,É.A.,15.0,0.0,0.0,1213.0,80.87,3.83,192.2,50.18,0.26,0.16,11.17,1020.8,91.39,0.74,0.84,0,0,n/a,0.0,0.0
2016,É.A.P. - P.C.Q.,72.0,0.0,0.0,5777.0,80.24,10.59,1055.1,99.63,0.15,0.18,61.41,4721.9,76.89,0.85,0.82,0,0,n/a,0.0,0.0
2017,Tous,32092.0,1.0,1.0,2260626.5,70.44,12353.16,817634.97,66.19,0.38,0.36,19733.84,1442651.53,73.11,0.61,0.64,5,340.0,68.0,0.0,0.0
2017,B.P.,43.0,0.0,0.0,2845.0,66.16,11.84,787.55,66.52,0.28,0.28,31.16,2057.45,66.03,0.72,0.72,0,0,n/a,0.0,0.0
2017,C.A.Q.- É.F.L.,3192.0,0.1,0.11,257946.0,80.81,1019.48,78645.91,77.14,0.32,0.3,2172.52,179300.09,82.53,0.68,0.7,0,0,n/a,0.0,0.0
2017,C.P.Q.,56.0,0.0,0.0,2571.0,45.91,14.6,510.3,34.95,0.26,0.2,41.4,2060.7,49.78,0.74,0.8,0,0,n/a,0.0,0.0
2017,N.P.D.Q.,159.0,0.0,0.0,6494.589999999999,40.85,59.16,2041.86,34.51,0.37,0.31,99.84,4452.73,44.6,0.63,0.69,0,0,n/a,0.0,0.0
2017,O.N.,147.0,0.0,0.0,10039.0,68.29,31.73,2092.35,65.94,0.22,0.21,115.27,7946.65,68.94,0.78,0.79,0,0,n/a,0.0,0.0
2017,P.I.,191.99,0.01,0.01,18104.0,94.3,72.8,7063.0,97.02,0.38,0.39,119.19,11041.0,92.63,0.62,0.61,0,0,n/a,0.0,0.0
2017,P.L.,1.0,0.0,0.0,100.0,100.0,0.0,0.0,n/a,0.0,0.0,1.0,100.0,100.0,1.0,1.0,0,0,n/a,0.0,0.0
2017,P.L.Q./Q.L.P.,8821.0,0.27,0.34,769183.13,87.2,3100.09,259638.08,83.75,0.35,0.34,5716.91,509230.05,89.07,0.65,0.66,4,315.0,78.75,0.0,0.0
2017,P.M.L.Q.,75.0,0.0,0.0,6525.0,87.0,26.77,2170.1,81.06,0.36,0.33,48.23,4354.9,90.29,0.64,0.67,0,0,n/a,0.0,0.0
2017,P.N.,1.0,0.0,0.0,30.0,30.0,0.99,29.7,30.0,0.99,0.99,0.01,0.3,30.0,0.01,0.01,0,0,n/a,0.0,0.0
2017,P.Q.,14511.0,0.45,0.37,837706.4,57.73,5639.73,300702.9,53.32,0.39,0.36,8870.27,536978.5,60.54,0.61,0.64,1,25.0,25.0,0.0,0.0
2017,P.T.Q.,6.0,0.0,0.0,600.0,100.0,3.01,301.0,100.0,0.5,0.5,2.99,299.0,100.0,0.5,0.5,0,0,n/a,0.0,0.0
2017,P.U.N.,78.0,0.0,0.0,5147.0,65.99,36.53,2125.8,58.19,0.47,0.41,41.47,3021.2,72.85,0.53,0.59,0,0,n/a,0.0,0.0
2017,P.V.Q./G.P.Q.,40.0,0.0,0.0,2515.0,62.88,12.45,895.9,71.96,0.31,0.36,27.55,1619.1,58.77,0.69,0.64,0,0,n/a,0.0,0.0
2017,P.Éq,1.0,0.0,0.0,100.0,100.0,0.01,1.0,100.0,0.01,0.01,0.99,99.0,100.0,0.99,0.99,0,0,n/a,0.0,0.0
2017,P51,22.0,0.0,0.0,813.51,36.98,4.09,96.71,23.65,0.19,0.12,17.91,716.8,40.02,0.81,0.88,0,0,n/a,0.0,0.0
2017,Q.S.,4636.0,0.14,0.15,330702.87,71.33,2301.19,159094.64,69.14,0.5,0.48,2334.81,171608.23,73.5,0.5,0.52,0,0,n/a,0.0,0.0
2017,É.A.,12.0,0.0,0.0,970.0,80.83,2.5,139.2,55.68,0.21,0.14,9.5,830.8,87.45,0.79,0.86,0,0,n/a,0.0,0.0
2017,É.A.P. - P.C.Q.,99.0,0.0,0.0,8234.0,83.17,16.19,1298.97,80.23,0.16,0.16,82.81,6935.03,83.75,0.84,0.84,0,0,n/a,0.0,0.0
2018,Tous,17086.0,1.0,1.0,1785128.8499999999,104.48,6611.81,644765.22,97.52,0.39,0.36,10439.19,1137948.63,109.01,0.61,0.64,35,2415.0,69.0,0.0,0.0
2018,B.P.,43.0,0.0,0.0,3354.9900000000002,78.02,12.63,1078.17,85.37,0.29,0.32,30.37,2276.82,74.97,0.71,0.68,0,0,n/a,0.0,0.0
2018,C.A.Q.- É.F.L.,2129.0,0.12,0.16,284076.0,133.43,656.65,86306.58,131.43,0.31,0.3,1467.35,197219.42,134.41,0.69,0.69,5,550.0,110.0,0.0,0.0
2018,C.P.Q.,62.0,0.0,0.0,3085.0,49.76,18.1,745.95,41.21,0.29,0.24,43.9,2339.05,53.28,0.71,0.76,0,0,n/a,0.0,0.0
2018,N.P.D.Q.,141.0,0.01,0.01,15930.0,112.98,48.46,5463.38,112.74,0.34,0.34,87.54,10186.62,116.37,0.62,0.64,5,280.0,56.0,0.04,0.02
2018,P.I.,2.0,0.0,0.0,205.0,102.5,0.0,0.0,n/a,0.0,0.0,2.0,205.0,102.5,1.0,1.0,0,0,n/a,0.0,0.0
2018,P.L.Q./Q.L.P.,3315.0,0.19,0.23,410570.19999999995,123.85,1225.67,144403.46,117.82,0.37,0.35,2078.33,265046.74,127.53,0.63,0.65,11,1120.0,101.82,0.0,0.0
2018,P.M.L.Q.,38.0,0.0,0.0,4330.0,113.95,14.62,1496.0,102.33,0.38,0.35,23.38,2834.0,121.21,0.62,0.65,0,0,n/a,0.0,0.0
2018,P.Q.,8543.0,0.5,0.43,761955.97,89.19,3284.55,270641.81,82.4,0.38,0.36,5250.45,491054.16,93.53,0.61,0.64,8,260.0,32.5,0.0,0.0
2018,P.U.N.,3.0,0.0,0.0,500.0,166.67,1.0,200.0,200.0,0.33,0.4,2.0,300.0,150.0,0.67,0.6,0,0,n/a,0.0,0.0
2018,P.V.Q./G.P.Q.,12.0,0.0,0.0,1600.0,133.33,3.05,603.1,197.74,0.25,0.38,8.95,996.9,111.39,0.75,0.62,0,0,n/a,0.0,0.0
2018,P51,2.0,0.0,0.0,210.0,105.0,0.48,6.7,13.96,0.24,0.03,1.52,203.3,133.75,0.76,0.97,0,0,n/a,0.0,0.0
2018,Q.M.,2.0,0.0,0.0,175.0,87.5,0.01,1.0,100.0,0.01,0.01,0.99,99.0,100.0,0.49,0.57,1,75.0,75.0,0.5,0.43
2018,Q.S.,2693.0,0.16,0.16,283471.68,105.26,1329.49,131310.56,98.77,0.49,0.46,1358.51,152031.12,111.91,0.5,0.54,5,130.0,26.0,0.0,0.0
2018,É.A.,5.0,0.0,0.0,340.0,68.0,0.48,10.4,21.67,0.1,0.03,4.52,329.6,72.92,0.9,0.97,0,0,n/a,0.0,0.0
2018,É.A.P. - P.C.Q.,96.0,0.01,0.01,15325.0,159.64,16.6,2498.1,150.49,0.17,0.16,79.4,12826.9,161.55,0.83,0.84,0,0,n/a,0.0,0.0
