Année,Parti politique,Nbr donateurs,Proportion donateurs (%),Proportion argent (%),Montant total,Montant moyen,Nbr F,Montant F,Montant moyen F,Proportion donateurs F,Proportion montants F,Nbr H,Montant H,Montant moyen H,Proportion donateurs H,Proportion montants H,Nbr I,Montant I,Montant moyen I,Proportion donateurs I,Proportion montant I
2020,Tous,11507.0,1.0,1.0,888857.38,77.2449,4415.71,328443.97,74.3808,0.3837,0.3695,7052.29,557931.41,79.1135,0.6129,0.6277,39,2482.0,63.641,0.0034,0.0028
2020,B.P.,86.0,0.0075,0.0042,3737.0,43.4535,19.42,714.95,36.8151,0.2258,0.1913,66.58,3022.05,45.3898,0.7742,0.8087,0,0,n/a,0.0,0.0
2020,C.A.Q.- É.F.L.,3616.0,0.3142,0.3658,325139.0,89.9168,1231.68,110518.42,89.7298,0.3406,0.3399,2378.32,214285.58,90.0996,0.6577,0.6591,6,335.0,55.8333,0.0017,0.001
2020,C.I.N.Q.,3.0,0.0003,0.0003,300.0,100.0,1.59,159.33,100.2075,0.53,0.5311,1.41,140.67,99.766,0.47,0.4689,0,0,n/a,0.0,0.0
2020,C.P.Q.,234.0,0.0203,0.016,14254.0,60.9145,103.99,6259.2,60.1904,0.4444,0.4391,130.01,7994.8,61.4937,0.5556,0.5609,0,0,n/a,0.0,0.0
2020,N.P.D.Q.,13.0,0.0011,0.0012,1090.0,83.8462,4.99,499.0,100.0,0.3838,0.4578,8.01,591.0,73.7828,0.6162,0.5422,0,0,n/a,0.0,0.0
2020,P.C.Q./C.P.Q.,56.0,0.0049,0.0056,4995.97,89.2138,7.83,652.0,83.2695,0.1398,0.1305,47.17,4243.97,89.9718,0.8423,0.8495,1,100.0,100.0,0.0179,0.02
2020,P.I.Q.,3.0,0.0003,0.0001,100.0,33.3333,2.22,61.25,27.5901,0.74,0.6125,0.78,38.75,49.6795,0.26,0.3875,0,0,n/a,0.0,0.0
2020,P.L.,210.0,0.0182,0.0169,15000.0,71.4286,84.15,6179.0,73.4284,0.4007,0.4119,125.85,8821.0,70.0914,0.5993,0.5881,0,0,n/a,0.0,0.0
2020,P.L.Q./Q.L.P.,1843.0,0.1602,0.1587,141075.2,76.5465,643.43,48202.68,74.9152,0.3491,0.3417,1171.57,91060.52,77.7252,0.6357,0.6455,28,1812.0,64.7143,0.0152,0.0128
2020,P.M.L.Q.,60.0,0.0052,0.0064,5685.0,94.75,21.91,2060.0,94.021,0.3652,0.3624,37.09,3525.0,95.0391,0.6182,0.6201,1,100.0,100.0,0.0167,0.0176
2020,P.Q.,3331.0,0.2895,0.2542,225943.24,67.8305,1336.2,83950.55,62.8278,0.4011,0.3716,1992.8,141882.69,71.1977,0.5983,0.628,2,110.0,55.0,0.0006,0.0005
2020,P.V.Q./G.P.Q.,8.0,0.0007,0.0006,577.0,72.125,2.08,157.25,75.601,0.26,0.2725,5.92,419.75,70.9037,0.74,0.7275,0,0,n/a,0.0,0.0
2020,P51,10.0,0.0009,0.0008,700.0,70.0,2.04,201.9,98.9706,0.204,0.2884,7.96,498.1,62.5754,0.796,0.7116,0,0,n/a,0.0,0.0
2020,Q.S.,2025.0,0.176,0.1685,149775.96999999997,73.9634,953.67,68797.93,72.1402,0.4709,0.4593,1070.33,80953.04,75.6337,0.5286,0.5405,1,25.0,25.0,0.0005,0.0002
2020,É.A.,9.0,0.0008,0.0005,485.0,53.8889,0.51,30.5,59.8039,0.0567,0.0629,8.49,454.5,53.5336,0.9433,0.9371,0,0,n/a,0.0,0.0
